<?xml version="1.0" standalone="no"?>
<!DOCTYPE svg PUBLIC "-//W3C//DTD SVG 1.1//EN"
 "http://www.w3.org/Graphics/SVG/1.1/DTD/svg11.dtd">
<!-- Created with svg_stack (http://github.com/astraw/svg_stack) -->
<svg xmlns:sodipodi="http://sodipodi.sourceforge.net/DTD/sodipodi-0.dtd" xmlns:xlink="http://www.w3.org/1999/xlink" xmlns="http://www.w3.org/2000/svg" version="1.1" width="681.25" height="250.0">
  <defs><style type="text/css">
*{stroke-linecap:butt;stroke-linejoin:round;}
  </style>
 <clipPath id="id0:p068aea1841">
   <rect height="166.32" width="223.2" x="48.54075" y="13.802969"/>
  </clipPath>
  <clipPath id="id0:p2fa076a439">
   <path d="M 59.067234 50.285937  L 59.067234 34.445937  L 74.907234 34.445937  L 74.907234 50.285937  "/>
  </clipPath>
  <clipPath id="id0:p9e1cb1fd83">
   <path d="M 59.067234 68.125937  L 59.067234 52.285937  L 74.907234 52.285937  L 74.907234 68.125937  "/>
  </clipPath>
  <clipPath id="id0:p02998503ca">
   <path d="M 59.067234 85.965937  L 59.067234 70.125937  L 74.907234 70.125937  L 74.907234 85.965937  "/>
  </clipPath>
 <style type="text/css">
*{stroke-linecap:butt;stroke-linejoin:round;}
  </style>
 <clipPath id="id1:pb9d1e01101">
   <rect height="166.32" width="223.2" x="31.709375" y="9.95"/>
  </clipPath>
 </defs>
  <g id="id0:id0" transform="matrix(1.25,0,0,1.25,0.0,0.0)"><g id="id0:figure_1">
  <g id="id0:patch_1">
   <path d="M 0 200.789719  L 281.69075 200.789719  L 281.69075 0  L 0 0  z " style="fill:#ffffff;stroke:#ffffff;stroke-linejoin:miter;"/>
  </g>
  <g id="id0:axes_1">
   <g id="id0:patch_2">
    <path d="M 48.54075 180.122969  L 271.74075 180.122969  L 271.74075 13.802969  L 48.54075 13.802969  z " style="fill:#ffffff;stroke:#7f7f7f;stroke-linejoin:miter;"/>
   </g>
   <g id="id0:matplotlib.axis_1">
    <g id="id0:xtick_1">
     <g id="id0:line2d_1">
      <path d="M 54.74075 180.122969  " style="fill:none;stroke:#000000;stroke-width:1.5;"/>
      <defs>
       <path d="M 0 0  L 0 2.75  " id="id0:m87fe89a52d" style="stroke:#000000;"/>
      </defs>
      <g>
       <use style="stroke:#000000;" x="54.74075" xlink:href="#id0:m87fe89a52d" y="180.122969"/>
      </g>
     </g>
     <g id="id0:text_1">
      <!-- 2000 -->
      <defs>
       <path d="M 19.1875 8.296875  L 53.609375 8.296875  L 53.609375 0  L 7.328125 0  L 7.328125 8.296875  Q 12.9375 14.109375 22.625 23.890625  Q 32.328125 33.6875 34.8125 36.53125  Q 39.546875 41.84375 41.421875 45.53125  Q 43.3125 49.21875 43.3125 52.78125  Q 43.3125 58.59375 39.234375 62.25  Q 35.15625 65.921875 28.609375 65.921875  Q 23.96875 65.921875 18.8125 64.3125  Q 13.671875 62.703125 7.8125 59.421875  L 7.8125 69.390625  Q 13.765625 71.78125 18.9375 73  Q 24.125 74.21875 28.421875 74.21875  Q 39.75 74.21875 46.484375 68.546875  Q 53.21875 62.890625 53.21875 53.421875  Q 53.21875 48.921875 51.53125 44.890625  Q 49.859375 40.875 45.40625 35.40625  Q 44.1875 33.984375 37.640625 27.21875  Q 31.109375 20.453125 19.1875 8.296875  z " id="id0:DejaVuSans-32"/>
       <path d="M 31.78125 66.40625  Q 24.171875 66.40625 20.328125 58.90625  Q 16.5 51.421875 16.5 36.375  Q 16.5 21.390625 20.328125 13.890625  Q 24.171875 6.390625 31.78125 6.390625  Q 39.453125 6.390625 43.28125 13.890625  Q 47.125 21.390625 47.125 36.375  Q 47.125 51.421875 43.28125 58.90625  Q 39.453125 66.40625 31.78125 66.40625  z M 31.78125 74.21875  Q 44.046875 74.21875 50.515625 64.515625  Q 56.984375 54.828125 56.984375 36.375  Q 56.984375 17.96875 50.515625 8.265625  Q 44.046875 -1.421875 31.78125 -1.421875  Q 19.53125 -1.421875 13.0625 8.265625  Q 6.59375 17.96875 6.59375 36.375  Q 6.59375 54.828125 13.0625 64.515625  Q 19.53125 74.21875 31.78125 74.21875  z " id="id0:DejaVuSans-30"/>
      </defs>
      <g style="fill:#4d4d4d;" transform="translate(43.54275 191.759594)scale(0.088 -0.088)">
       <use xlink:href="#id0:DejaVuSans-32"/>
       <use x="63.623047" xlink:href="#id0:DejaVuSans-30"/>
       <use x="127.246094" xlink:href="#id0:DejaVuSans-30"/>
       <use x="190.869141" xlink:href="#id0:DejaVuSans-30"/>
      </g>
     </g>
    </g>
    <g id="id0:xtick_2">
     <g id="id0:line2d_2">
      <path d="M 116.74075 180.122969  " style="fill:none;stroke:#000000;stroke-width:1.5;"/>
      <g>
       <use style="stroke:#000000;" x="116.74075" xlink:href="#id0:m87fe89a52d" y="180.122969"/>
      </g>
     </g>
     <g id="id0:text_2">
      <!-- 2005 -->
      <defs>
       <path d="M 10.796875 72.90625  L 49.515625 72.90625  L 49.515625 64.59375  L 19.828125 64.59375  L 19.828125 46.734375  Q 21.96875 47.46875 24.109375 47.828125  Q 26.265625 48.1875 28.421875 48.1875  Q 40.625 48.1875 47.75 41.5  Q 54.890625 34.8125 54.890625 23.390625  Q 54.890625 11.625 47.5625 5.09375  Q 40.234375 -1.421875 26.90625 -1.421875  Q 22.3125 -1.421875 17.546875 -0.640625  Q 12.796875 0.140625 7.71875 1.703125  L 7.71875 11.625  Q 12.109375 9.234375 16.796875 8.0625  Q 21.484375 6.890625 26.703125 6.890625  Q 35.15625 6.890625 40.078125 11.328125  Q 45.015625 15.765625 45.015625 23.390625  Q 45.015625 31 40.078125 35.4375  Q 35.15625 39.890625 26.703125 39.890625  Q 22.75 39.890625 18.8125 39.015625  Q 14.890625 38.140625 10.796875 36.28125  z " id="id0:DejaVuSans-35"/>
      </defs>
      <g style="fill:#4d4d4d;" transform="translate(105.54275 191.759594)scale(0.088 -0.088)">
       <use xlink:href="#id0:DejaVuSans-32"/>
       <use x="63.623047" xlink:href="#id0:DejaVuSans-30"/>
       <use x="127.246094" xlink:href="#id0:DejaVuSans-30"/>
       <use x="190.869141" xlink:href="#id0:DejaVuSans-35"/>
      </g>
     </g>
    </g>
    <g id="id0:xtick_3">
     <g id="id0:line2d_3">
      <path d="M 178.74075 180.122969  " style="fill:none;stroke:#000000;stroke-width:1.5;"/>
      <g>
       <use style="stroke:#000000;" x="178.74075" xlink:href="#id0:m87fe89a52d" y="180.122969"/>
      </g>
     </g>
     <g id="id0:text_3">
      <!-- 2010 -->
      <defs>
       <path d="M 12.40625 8.296875  L 28.515625 8.296875  L 28.515625 63.921875  L 10.984375 60.40625  L 10.984375 69.390625  L 28.421875 72.90625  L 38.28125 72.90625  L 38.28125 8.296875  L 54.390625 8.296875  L 54.390625 0  L 12.40625 0  z " id="id0:DejaVuSans-31"/>
      </defs>
      <g style="fill:#4d4d4d;" transform="translate(167.54275 191.759594)scale(0.088 -0.088)">
       <use xlink:href="#id0:DejaVuSans-32"/>
       <use x="63.623047" xlink:href="#id0:DejaVuSans-30"/>
       <use x="127.246094" xlink:href="#id0:DejaVuSans-31"/>
       <use x="190.869141" xlink:href="#id0:DejaVuSans-30"/>
      </g>
     </g>
    </g>
    <g id="id0:xtick_4">
     <g id="id0:line2d_4">
      <path d="M 240.74075 180.122969  " style="fill:none;stroke:#000000;stroke-width:1.5;"/>
      <g>
       <use style="stroke:#000000;" x="240.74075" xlink:href="#id0:m87fe89a52d" y="180.122969"/>
      </g>
     </g>
     <g id="id0:text_4">
      <!-- 2015 -->
      <g style="fill:#4d4d4d;" transform="translate(229.54275 191.759594)scale(0.088 -0.088)">
       <use xlink:href="#id0:DejaVuSans-32"/>
       <use x="63.623047" xlink:href="#id0:DejaVuSans-30"/>
       <use x="127.246094" xlink:href="#id0:DejaVuSans-31"/>
       <use x="190.869141" xlink:href="#id0:DejaVuSans-35"/>
      </g>
     </g>
    </g>
   </g>
   <g id="id0:matplotlib.axis_2">
    <g id="id0:ytick_1">
     <g id="id0:line2d_5">
      <path clip-path="url(#id0:p068aea1841)" d="M 48.54075 180.122969  L 271.74075 180.122969  " style="fill:none;stroke:#e5e5e5;stroke-width:0.8;"/>
     </g>
     <g id="id0:line2d_6">
      <path d="M 48.54075 180.122969  " style="fill:none;stroke:#000000;stroke-width:1.5;"/>
      <defs>
       <path d="M 0 0  L -2.75 0  " id="id0:md7b549474d" style="stroke:#000000;"/>
      </defs>
      <g>
       <use style="stroke:#000000;" x="48.54075" xlink:href="#id0:md7b549474d" y="180.122969"/>
      </g>
     </g>
     <g id="id0:text_5">
      <!-- 0 -->
      <g style="fill:#4d4d4d;" transform="translate(37.99175 182.551219)scale(0.088 -0.088)">
       <use xlink:href="#id0:DejaVuSans-30"/>
      </g>
     </g>
    </g>
    <g id="id0:ytick_2">
     <g id="id0:line2d_7">
      <path clip-path="url(#id0:p068aea1841)" d="M 48.54075 148.242666  L 271.74075 148.242666  " style="fill:none;stroke:#e5e5e5;stroke-width:0.8;"/>
     </g>
     <g id="id0:line2d_8">
      <path d="M 48.54075 148.242666  " style="fill:none;stroke:#000000;stroke-width:1.5;"/>
      <g>
       <use style="stroke:#000000;" x="48.54075" xlink:href="#id0:md7b549474d" y="148.242666"/>
      </g>
     </g>
     <g id="id0:text_6">
      <!-- 50,000 -->
      <defs>
       <path d="M 11.71875 12.40625  L 22.015625 12.40625  L 22.015625 4  L 14.015625 -11.625  L 7.71875 -11.625  L 11.71875 4  z " id="id0:DejaVuSans-2c"/>
      </defs>
      <g style="fill:#4d4d4d;" transform="translate(12.799 150.670916)scale(0.088 -0.088)">
       <use xlink:href="#id0:DejaVuSans-35"/>
       <use x="63.623047" xlink:href="#id0:DejaVuSans-30"/>
       <use x="127.246094" xlink:href="#id0:DejaVuSans-2c"/>
       <use x="159.033203" xlink:href="#id0:DejaVuSans-30"/>
       <use x="222.65625" xlink:href="#id0:DejaVuSans-30"/>
       <use x="286.279297" xlink:href="#id0:DejaVuSans-30"/>
      </g>
     </g>
    </g>
    <g id="id0:ytick_3">
     <g id="id0:line2d_9">
      <path clip-path="url(#id0:p068aea1841)" d="M 48.54075 116.362363  L 271.74075 116.362363  " style="fill:none;stroke:#e5e5e5;stroke-width:0.8;"/>
     </g>
     <g id="id0:line2d_10">
      <path d="M 48.54075 116.362363  " style="fill:none;stroke:#000000;stroke-width:1.5;"/>
      <g>
       <use style="stroke:#000000;" x="48.54075" xlink:href="#id0:md7b549474d" y="116.362363"/>
      </g>
     </g>
     <g id="id0:text_7">
      <!-- 100,000 -->
      <g style="fill:#4d4d4d;" transform="translate(7.2 118.790613)scale(0.088 -0.088)">
       <use xlink:href="#id0:DejaVuSans-31"/>
       <use x="63.623047" xlink:href="#id0:DejaVuSans-30"/>
       <use x="127.246094" xlink:href="#id0:DejaVuSans-30"/>
       <use x="190.869141" xlink:href="#id0:DejaVuSans-2c"/>
       <use x="222.65625" xlink:href="#id0:DejaVuSans-30"/>
       <use x="286.279297" xlink:href="#id0:DejaVuSans-30"/>
       <use x="349.902344" xlink:href="#id0:DejaVuSans-30"/>
      </g>
     </g>
    </g>
    <g id="id0:ytick_4">
     <g id="id0:line2d_11">
      <path clip-path="url(#id0:p068aea1841)" d="M 48.54075 84.48206  L 271.74075 84.48206  " style="fill:none;stroke:#e5e5e5;stroke-width:0.8;"/>
     </g>
     <g id="id0:line2d_12">
      <path d="M 48.54075 84.48206  " style="fill:none;stroke:#000000;stroke-width:1.5;"/>
      <g>
       <use style="stroke:#000000;" x="48.54075" xlink:href="#id0:md7b549474d" y="84.48206"/>
      </g>
     </g>
     <g id="id0:text_8">
      <!-- 150,000 -->
      <g style="fill:#4d4d4d;" transform="translate(7.2 86.91031)scale(0.088 -0.088)">
       <use xlink:href="#id0:DejaVuSans-31"/>
       <use x="63.623047" xlink:href="#id0:DejaVuSans-35"/>
       <use x="127.246094" xlink:href="#id0:DejaVuSans-30"/>
       <use x="190.869141" xlink:href="#id0:DejaVuSans-2c"/>
       <use x="222.65625" xlink:href="#id0:DejaVuSans-30"/>
       <use x="286.279297" xlink:href="#id0:DejaVuSans-30"/>
       <use x="349.902344" xlink:href="#id0:DejaVuSans-30"/>
      </g>
     </g>
    </g>
    <g id="id0:ytick_5">
     <g id="id0:line2d_13">
      <path clip-path="url(#id0:p068aea1841)" d="M 48.54075 52.601757  L 271.74075 52.601757  " style="fill:none;stroke:#e5e5e5;stroke-width:0.8;"/>
     </g>
     <g id="id0:line2d_14">
      <path d="M 48.54075 52.601757  " style="fill:none;stroke:#000000;stroke-width:1.5;"/>
      <g>
       <use style="stroke:#000000;" x="48.54075" xlink:href="#id0:md7b549474d" y="52.601757"/>
      </g>
     </g>
     <g id="id0:text_9">
      <!-- 200,000 -->
      <g style="fill:#4d4d4d;" transform="translate(7.2 55.030007)scale(0.088 -0.088)">
       <use xlink:href="#id0:DejaVuSans-32"/>
       <use x="63.623047" xlink:href="#id0:DejaVuSans-30"/>
       <use x="127.246094" xlink:href="#id0:DejaVuSans-30"/>
       <use x="190.869141" xlink:href="#id0:DejaVuSans-2c"/>
       <use x="222.65625" xlink:href="#id0:DejaVuSans-30"/>
       <use x="286.279297" xlink:href="#id0:DejaVuSans-30"/>
       <use x="349.902344" xlink:href="#id0:DejaVuSans-30"/>
      </g>
     </g>
    </g>
    <g id="id0:ytick_6">
     <g id="id0:line2d_15">
      <path clip-path="url(#id0:p068aea1841)" d="M 48.54075 20.721454  L 271.74075 20.721454  " style="fill:none;stroke:#e5e5e5;stroke-width:0.8;"/>
     </g>
     <g id="id0:line2d_16">
      <path d="M 48.54075 20.721454  " style="fill:none;stroke:#000000;stroke-width:1.5;"/>
      <g>
       <use style="stroke:#000000;" x="48.54075" xlink:href="#id0:md7b549474d" y="20.721454"/>
      </g>
     </g>
     <g id="id0:text_10">
      <!-- 250,000 -->
      <g style="fill:#4d4d4d;" transform="translate(7.2 23.149704)scale(0.088 -0.088)">
       <use xlink:href="#id0:DejaVuSans-32"/>
       <use x="63.623047" xlink:href="#id0:DejaVuSans-35"/>
       <use x="127.246094" xlink:href="#id0:DejaVuSans-30"/>
       <use x="190.869141" xlink:href="#id0:DejaVuSans-2c"/>
       <use x="222.65625" xlink:href="#id0:DejaVuSans-30"/>
       <use x="286.279297" xlink:href="#id0:DejaVuSans-30"/>
       <use x="349.902344" xlink:href="#id0:DejaVuSans-30"/>
      </g>
     </g>
    </g>
    <g id="id0:ytick_7">
     <g id="id0:line2d_17">
      <path clip-path="url(#id0:p068aea1841)" d="M 48.54075 164.182817  L 271.74075 164.182817  " style="fill:none;stroke:#fafafa;"/>
     </g>
     <g id="id0:line2d_18">
      <path d="M 48.54075 164.182817  " style="fill:none;stroke:#000000;stroke-width:1.5;"/>
     </g>
    </g>
    <g id="id0:ytick_8">
     <g id="id0:line2d_19">
      <path clip-path="url(#id0:p068aea1841)" d="M 48.54075 132.302514  L 271.74075 132.302514  " style="fill:none;stroke:#fafafa;"/>
     </g>
     <g id="id0:line2d_20">
      <path d="M 48.54075 132.302514  " style="fill:none;stroke:#000000;stroke-width:1.5;"/>
     </g>
    </g>
    <g id="id0:ytick_9">
     <g id="id0:line2d_21">
      <path clip-path="url(#id0:p068aea1841)" d="M 48.54075 100.422211  L 271.74075 100.422211  " style="fill:none;stroke:#fafafa;"/>
     </g>
     <g id="id0:line2d_22">
      <path d="M 48.54075 100.422211  " style="fill:none;stroke:#000000;stroke-width:1.5;"/>
     </g>
    </g>
    <g id="id0:ytick_10">
     <g id="id0:line2d_23">
      <path clip-path="url(#id0:p068aea1841)" d="M 48.54075 68.541908  L 271.74075 68.541908  " style="fill:none;stroke:#fafafa;"/>
     </g>
     <g id="id0:line2d_24">
      <path d="M 48.54075 68.541908  " style="fill:none;stroke:#000000;stroke-width:1.5;"/>
     </g>
    </g>
    <g id="id0:ytick_11">
     <g id="id0:line2d_25">
      <path clip-path="url(#id0:p068aea1841)" d="M 48.54075 36.661605  L 271.74075 36.661605  " style="fill:none;stroke:#fafafa;"/>
     </g>
     <g id="id0:line2d_26">
      <path d="M 48.54075 36.661605  " style="fill:none;stroke:#000000;stroke-width:1.5;"/>
     </g>
    </g>
   </g>
   <g id="id0:PolyCollection_1">
    <path clip-path="url(#id0:p068aea1841)" d="M -211.85925 180.122969  L -211.85925 180.120418  L -199.45925 180.120418  L -199.45925 180.122969  z " style="fill:#edb4b4;stroke:#ffffff;stroke-width:0.886227;"/>
    <path clip-path="url(#id0:p068aea1841)" d="M -211.85925 180.120418  L -211.85925 180.120418  L -199.45925 180.120418  L -199.45925 180.120418  z " style="fill:#e2e2e2;stroke:#ffffff;stroke-width:0.886227;"/>
    <path clip-path="url(#id0:p068aea1841)" d="M -211.85925 180.120418  L -211.85925 180.117868  L -199.45925 180.117868  L -199.45925 180.120418  z " style="fill:#bac0f2;stroke:#ffffff;stroke-width:0.886227;"/>
    <path clip-path="url(#id0:p068aea1841)" d="M -199.45925 180.122969  L -199.45925 180.110217  L -187.05925 180.110217  L -187.05925 180.122969  z " style="fill:#edb4b4;stroke:#ffffff;stroke-width:0.886227;"/>
    <path clip-path="url(#id0:p068aea1841)" d="M -199.45925 180.110217  L -199.45925 180.110217  L -187.05925 180.110217  L -187.05925 180.110217  z " style="fill:#e2e2e2;stroke:#ffffff;stroke-width:0.886227;"/>
    <path clip-path="url(#id0:p068aea1841)" d="M -199.45925 180.110217  L -199.45925 180.110217  L -187.05925 180.110217  L -187.05925 180.110217  z " style="fill:#bac0f2;stroke:#ffffff;stroke-width:0.886227;"/>
    <path clip-path="url(#id0:p068aea1841)" d="M -187.05925 180.122969  L -187.05925 180.110854  L -174.65925 180.110854  L -174.65925 180.122969  z " style="fill:#edb4b4;stroke:#ffffff;stroke-width:0.886227;"/>
    <path clip-path="url(#id0:p068aea1841)" d="M -187.05925 180.110854  L -187.05925 180.110854  L -174.65925 180.110854  L -174.65925 180.110854  z " style="fill:#e2e2e2;stroke:#ffffff;stroke-width:0.886227;"/>
    <path clip-path="url(#id0:p068aea1841)" d="M -187.05925 180.110854  L -187.05925 180.110854  L -174.65925 180.110854  L -174.65925 180.110854  z " style="fill:#bac0f2;stroke:#ffffff;stroke-width:0.886227;"/>
    <path clip-path="url(#id0:p068aea1841)" d="M -174.65925 180.122969  L -174.65925 180.108941  L -162.25925 180.108941  L -162.25925 180.122969  z " style="fill:#edb4b4;stroke:#ffffff;stroke-width:0.886227;"/>
    <path clip-path="url(#id0:p068aea1841)" d="M -174.65925 180.108941  L -174.65925 180.108941  L -162.25925 180.108941  L -162.25925 180.108941  z " style="fill:#e2e2e2;stroke:#ffffff;stroke-width:0.886227;"/>
    <path clip-path="url(#id0:p068aea1841)" d="M -174.65925 180.108941  L -174.65925 180.108941  L -162.25925 180.108941  L -162.25925 180.108941  z " style="fill:#bac0f2;stroke:#ffffff;stroke-width:0.886227;"/>
    <path clip-path="url(#id0:p068aea1841)" d="M -162.25925 180.122969  L -162.25925 180.108304  L -149.85925 180.108304  L -149.85925 180.122969  z " style="fill:#edb4b4;stroke:#ffffff;stroke-width:0.886227;"/>
    <path clip-path="url(#id0:p068aea1841)" d="M -162.25925 180.108304  L -162.25925 180.108304  L -149.85925 180.108304  L -149.85925 180.108304  z " style="fill:#e2e2e2;stroke:#ffffff;stroke-width:0.886227;"/>
    <path clip-path="url(#id0:p068aea1841)" d="M -162.25925 180.108304  L -162.25925 180.108304  L -149.85925 180.108304  L -149.85925 180.108304  z " style="fill:#bac0f2;stroke:#ffffff;stroke-width:0.886227;"/>
    <path clip-path="url(#id0:p068aea1841)" d="M -149.85925 180.122969  L -149.85925 180.101928  L -137.45925 180.101928  L -137.45925 180.122969  z " style="fill:#edb4b4;stroke:#ffffff;stroke-width:0.886227;"/>
    <path clip-path="url(#id0:p068aea1841)" d="M -149.85925 180.101928  L -149.85925 180.101928  L -137.45925 180.101928  L -137.45925 180.101928  z " style="fill:#e2e2e2;stroke:#ffffff;stroke-width:0.886227;"/>
    <path clip-path="url(#id0:p068aea1841)" d="M -149.85925 180.101928  L -149.85925 180.101928  L -137.45925 180.101928  L -137.45925 180.101928  z " style="fill:#bac0f2;stroke:#ffffff;stroke-width:0.886227;"/>
    <path clip-path="url(#id0:p068aea1841)" d="M -137.45925 180.122969  L -137.45925 180.105753  L -125.05925 180.105753  L -125.05925 180.122969  z " style="fill:#edb4b4;stroke:#ffffff;stroke-width:0.886227;"/>
    <path clip-path="url(#id0:p068aea1841)" d="M -137.45925 180.105753  L -137.45925 180.105753  L -125.05925 180.105753  L -125.05925 180.105753  z " style="fill:#e2e2e2;stroke:#ffffff;stroke-width:0.886227;"/>
    <path clip-path="url(#id0:p068aea1841)" d="M -137.45925 180.105753  L -137.45925 180.105753  L -125.05925 180.105753  L -125.05925 180.105753  z " style="fill:#bac0f2;stroke:#ffffff;stroke-width:0.886227;"/>
    <path clip-path="url(#id0:p068aea1841)" d="M -125.05925 180.122969  L -125.05925 180.100653  L -112.65925 180.100653  L -112.65925 180.122969  z " style="fill:#edb4b4;stroke:#ffffff;stroke-width:0.886227;"/>
    <path clip-path="url(#id0:p068aea1841)" d="M -125.05925 180.100653  L -125.05925 180.100653  L -112.65925 180.100653  L -112.65925 180.100653  z " style="fill:#e2e2e2;stroke:#ffffff;stroke-width:0.886227;"/>
    <path clip-path="url(#id0:p068aea1841)" d="M -125.05925 180.100653  L -125.05925 180.073235  L -112.65925 180.073235  L -112.65925 180.100653  z " style="fill:#bac0f2;stroke:#ffffff;stroke-width:0.886227;"/>
    <path clip-path="url(#id0:p068aea1841)" d="M -112.65925 180.122969  L -112.65925 180.098102  L -100.25925 180.098102  L -100.25925 180.122969  z " style="fill:#edb4b4;stroke:#ffffff;stroke-width:0.886227;"/>
    <path clip-path="url(#id0:p068aea1841)" d="M -112.65925 180.098102  L -112.65925 180.098102  L -100.25925 180.098102  L -100.25925 180.098102  z " style="fill:#e2e2e2;stroke:#ffffff;stroke-width:0.886227;"/>
    <path clip-path="url(#id0:p068aea1841)" d="M -112.65925 180.098102  L -112.65925 180.068772  L -100.25925 180.068772  L -100.25925 180.098102  z " style="fill:#bac0f2;stroke:#ffffff;stroke-width:0.886227;"/>
    <path clip-path="url(#id0:p068aea1841)" d="M -100.25925 180.122969  L -100.25925 180.090451  L -87.85925 180.090451  L -87.85925 180.122969  z " style="fill:#edb4b4;stroke:#ffffff;stroke-width:0.886227;"/>
    <path clip-path="url(#id0:p068aea1841)" d="M -100.25925 180.090451  L -100.25925 180.090451  L -87.85925 180.090451  L -87.85925 180.090451  z " style="fill:#e2e2e2;stroke:#ffffff;stroke-width:0.886227;"/>
    <path clip-path="url(#id0:p068aea1841)" d="M -100.25925 180.090451  L -100.25925 180.073235  L -87.85925 180.073235  L -87.85925 180.090451  z " style="fill:#bac0f2;stroke:#ffffff;stroke-width:0.886227;"/>
    <path clip-path="url(#id0:p068aea1841)" d="M -87.85925 180.122969  L -87.85925 180.098102  L -75.45925 180.098102  L -75.45925 180.122969  z " style="fill:#edb4b4;stroke:#ffffff;stroke-width:0.886227;"/>
    <path clip-path="url(#id0:p068aea1841)" d="M -87.85925 180.098102  L -87.85925 180.098102  L -75.45925 180.098102  L -75.45925 180.098102  z " style="fill:#e2e2e2;stroke:#ffffff;stroke-width:0.886227;"/>
    <path clip-path="url(#id0:p068aea1841)" d="M -87.85925 180.098102  L -87.85925 180.060483  L -75.45925 180.060483  L -75.45925 180.098102  z " style="fill:#bac0f2;stroke:#ffffff;stroke-width:0.886227;"/>
    <path clip-path="url(#id0:p068aea1841)" d="M -75.45925 180.122969  L -75.45925 180.0879  L -63.05925 180.0879  L -63.05925 180.122969  z " style="fill:#edb4b4;stroke:#ffffff;stroke-width:0.886227;"/>
    <path clip-path="url(#id0:p068aea1841)" d="M -75.45925 180.0879  L -75.45925 180.0879  L -63.05925 180.0879  L -63.05925 180.0879  z " style="fill:#e2e2e2;stroke:#ffffff;stroke-width:0.886227;"/>
    <path clip-path="url(#id0:p068aea1841)" d="M -75.45925 180.0879  L -75.45925 180.050282  L -63.05925 180.050282  L -63.05925 180.0879  z " style="fill:#bac0f2;stroke:#ffffff;stroke-width:0.886227;"/>
    <path clip-path="url(#id0:p068aea1841)" d="M -63.05925 180.122969  L -63.05925 180.097465  L -50.65925 180.097465  L -50.65925 180.122969  z " style="fill:#edb4b4;stroke:#ffffff;stroke-width:0.886227;"/>
    <path clip-path="url(#id0:p068aea1841)" d="M -63.05925 180.097465  L -63.05925 180.097465  L -50.65925 180.097465  L -50.65925 180.097465  z " style="fill:#e2e2e2;stroke:#ffffff;stroke-width:0.886227;"/>
    <path clip-path="url(#id0:p068aea1841)" d="M -63.05925 180.097465  L -63.05925 180.064309  L -50.65925 180.064309  L -50.65925 180.097465  z " style="fill:#bac0f2;stroke:#ffffff;stroke-width:0.886227;"/>
    <path clip-path="url(#id0:p068aea1841)" d="M -50.65925 180.122969  L -50.65925 180.0879  L -38.25925 180.0879  L -38.25925 180.122969  z " style="fill:#edb4b4;stroke:#ffffff;stroke-width:0.886227;"/>
    <path clip-path="url(#id0:p068aea1841)" d="M -50.65925 180.0879  L -50.65925 180.0879  L -38.25925 180.0879  L -38.25925 180.0879  z " style="fill:#e2e2e2;stroke:#ffffff;stroke-width:0.886227;"/>
    <path clip-path="url(#id0:p068aea1841)" d="M -50.65925 180.0879  L -50.65925 180.058571  L -38.25925 180.058571  L -38.25925 180.0879  z " style="fill:#bac0f2;stroke:#ffffff;stroke-width:0.886227;"/>
    <path clip-path="url(#id0:p068aea1841)" d="M -38.25925 180.122969  L -38.25925 180.094276  L -25.85925 180.094276  L -25.85925 180.122969  z " style="fill:#edb4b4;stroke:#ffffff;stroke-width:0.886227;"/>
    <path clip-path="url(#id0:p068aea1841)" d="M -38.25925 180.094276  L -38.25925 180.094276  L -25.85925 180.094276  L -25.85925 180.094276  z " style="fill:#e2e2e2;stroke:#ffffff;stroke-width:0.886227;"/>
    <path clip-path="url(#id0:p068aea1841)" d="M -38.25925 180.094276  L -38.25925 180.059208  L -25.85925 180.059208  L -25.85925 180.094276  z " style="fill:#bac0f2;stroke:#ffffff;stroke-width:0.886227;"/>
    <path clip-path="url(#id0:p068aea1841)" d="M -25.85925 180.122969  L -25.85925 180.093639  L -13.45925 180.093639  L -13.45925 180.122969  z " style="fill:#edb4b4;stroke:#ffffff;stroke-width:0.886227;"/>
    <path clip-path="url(#id0:p068aea1841)" d="M -25.85925 180.093639  L -25.85925 180.093639  L -13.45925 180.093639  L -13.45925 180.093639  z " style="fill:#e2e2e2;stroke:#ffffff;stroke-width:0.886227;"/>
    <path clip-path="url(#id0:p068aea1841)" d="M -25.85925 180.093639  L -25.85925 180.07196  L -13.45925 180.07196  L -13.45925 180.093639  z " style="fill:#bac0f2;stroke:#ffffff;stroke-width:0.886227;"/>
    <path clip-path="url(#id0:p068aea1841)" d="M -13.45925 180.122969  L -13.45925 180.086625  L -1.05925 180.086625  L -1.05925 180.122969  z " style="fill:#edb4b4;stroke:#ffffff;stroke-width:0.886227;"/>
    <path clip-path="url(#id0:p068aea1841)" d="M -13.45925 180.086625  L -13.45925 180.086625  L -1.05925 180.086625  L -1.05925 180.086625  z " style="fill:#e2e2e2;stroke:#ffffff;stroke-width:0.886227;"/>
    <path clip-path="url(#id0:p068aea1841)" d="M -13.45925 180.086625  L -13.45925 180.033066  L -1.05925 180.033066  L -1.05925 180.086625  z " style="fill:#bac0f2;stroke:#ffffff;stroke-width:0.886227;"/>
    <path clip-path="url(#id0:p068aea1841)" d="M -1.05925 180.122969  L -1.05925 180.088538  L 11.34075 180.088538  L 11.34075 180.122969  z " style="fill:#edb4b4;stroke:#ffffff;stroke-width:0.886227;"/>
    <path clip-path="url(#id0:p068aea1841)" d="M -1.05925 180.088538  L -1.05925 180.088538  L 11.34075 180.088538  L 11.34075 180.088538  z " style="fill:#e2e2e2;stroke:#ffffff;stroke-width:0.886227;"/>
    <path clip-path="url(#id0:p068aea1841)" d="M -1.05925 180.088538  L -1.05925 179.996723  L 11.34075 179.996723  L 11.34075 180.088538  z " style="fill:#bac0f2;stroke:#ffffff;stroke-width:0.886227;"/>
    <path clip-path="url(#id0:p068aea1841)" d="M 11.34075 180.122969  L 11.34075 179.74168  L 23.74075 179.74168  L 23.74075 180.122969  z " style="fill:#edb4b4;stroke:#ffffff;stroke-width:0.886227;"/>
    <path clip-path="url(#id0:p068aea1841)" d="M 11.34075 179.74168  L 11.34075 179.74168  L 23.74075 179.74168  L 23.74075 179.74168  z " style="fill:#e2e2e2;stroke:#ffffff;stroke-width:0.886227;"/>
    <path clip-path="url(#id0:p068aea1841)" d="M 11.34075 179.74168  L 11.34075 179.260925  L 23.74075 179.260925  L 23.74075 179.74168  z " style="fill:#bac0f2;stroke:#ffffff;stroke-width:0.886227;"/>
    <path clip-path="url(#id0:p068aea1841)" d="M 23.74075 180.122969  L 23.74075 179.716814  L 36.14075 179.716814  L 36.14075 180.122969  z " style="fill:#edb4b4;stroke:#ffffff;stroke-width:0.886227;"/>
    <path clip-path="url(#id0:p068aea1841)" d="M 23.74075 179.716814  L 23.74075 179.716814  L 36.14075 179.716814  L 36.14075 179.716814  z " style="fill:#e2e2e2;stroke:#ffffff;stroke-width:0.886227;"/>
    <path clip-path="url(#id0:p068aea1841)" d="M 23.74075 179.716814  L 23.74075 179.253274  L 36.14075 179.253274  L 36.14075 179.716814  z " style="fill:#bac0f2;stroke:#ffffff;stroke-width:0.886227;"/>
    <path clip-path="url(#id0:p068aea1841)" d="M 36.14075 180.122969  L 36.14075 179.924036  L 48.54075 179.924036  L 48.54075 180.122969  z " style="fill:#edb4b4;stroke:#ffffff;stroke-width:0.886227;"/>
    <path clip-path="url(#id0:p068aea1841)" d="M 36.14075 179.924036  L 36.14075 179.92021  L 48.54075 179.92021  L 48.54075 179.924036  z " style="fill:#e2e2e2;stroke:#ffffff;stroke-width:0.886227;"/>
    <path clip-path="url(#id0:p068aea1841)" d="M 36.14075 179.92021  L 36.14075 179.556775  L 48.54075 179.556775  L 48.54075 179.92021  z " style="fill:#bac0f2;stroke:#ffffff;stroke-width:0.886227;"/>
    <path clip-path="url(#id0:p068aea1841)" d="M 48.54075 180.122969  L 48.54075 180.092364  L 60.94075 180.092364  L 60.94075 180.122969  z " style="fill:#edb4b4;stroke:#ffffff;stroke-width:0.886227;"/>
    <path clip-path="url(#id0:p068aea1841)" d="M 48.54075 180.092364  L 48.54075 180.091726  L 60.94075 180.091726  L 60.94075 180.092364  z " style="fill:#e2e2e2;stroke:#ffffff;stroke-width:0.886227;"/>
    <path clip-path="url(#id0:p068aea1841)" d="M 48.54075 180.091726  L 48.54075 179.626274  L 60.94075 179.626274  L 60.94075 180.091726  z " style="fill:#bac0f2;stroke:#ffffff;stroke-width:0.886227;"/>
    <path clip-path="url(#id0:p068aea1841)" d="M 60.94075 180.122969  L 60.94075 179.946352  L 73.34075 179.946352  L 73.34075 180.122969  z " style="fill:#edb4b4;stroke:#ffffff;stroke-width:0.886227;"/>
    <path clip-path="url(#id0:p068aea1841)" d="M 60.94075 179.946352  L 60.94075 179.945077  L 73.34075 179.945077  L 73.34075 179.946352  z " style="fill:#e2e2e2;stroke:#ffffff;stroke-width:0.886227;"/>
    <path clip-path="url(#id0:p068aea1841)" d="M 60.94075 179.945077  L 60.94075 178.937021  L 73.34075 178.937021  L 73.34075 179.945077  z " style="fill:#bac0f2;stroke:#ffffff;stroke-width:0.886227;"/>
    <path clip-path="url(#id0:p068aea1841)" d="M 73.34075 180.122969  L 73.34075 179.748056  L 85.74075 179.748056  L 85.74075 180.122969  z " style="fill:#edb4b4;stroke:#ffffff;stroke-width:0.886227;"/>
    <path clip-path="url(#id0:p068aea1841)" d="M 73.34075 179.748056  L 73.34075 179.745506  L 85.74075 179.745506  L 85.74075 179.748056  z " style="fill:#e2e2e2;stroke:#ffffff;stroke-width:0.886227;"/>
    <path clip-path="url(#id0:p068aea1841)" d="M 73.34075 179.745506  L 73.34075 178.090281  L 85.74075 178.090281  L 85.74075 179.745506  z " style="fill:#bac0f2;stroke:#ffffff;stroke-width:0.886227;"/>
    <path clip-path="url(#id0:p068aea1841)" d="M 85.74075 180.122969  L 85.74075 179.663892  L 98.14075 179.663892  L 98.14075 180.122969  z " style="fill:#edb4b4;stroke:#ffffff;stroke-width:0.886227;"/>
    <path clip-path="url(#id0:p068aea1841)" d="M 85.74075 179.663892  L 85.74075 179.662617  L 98.14075 179.662617  L 98.14075 179.663892  z " style="fill:#e2e2e2;stroke:#ffffff;stroke-width:0.886227;"/>
    <path clip-path="url(#id0:p068aea1841)" d="M 85.74075 179.662617  L 85.74075 177.448849  L 98.14075 177.448849  L 98.14075 179.662617  z " style="fill:#bac0f2;stroke:#ffffff;stroke-width:0.886227;"/>
    <path clip-path="url(#id0:p068aea1841)" d="M 98.14075 180.122969  L 98.14075 179.405662  L 110.54075 179.405662  L 110.54075 180.122969  z " style="fill:#edb4b4;stroke:#ffffff;stroke-width:0.886227;"/>
    <path clip-path="url(#id0:p068aea1841)" d="M 98.14075 179.405662  L 98.14075 179.405024  L 110.54075 179.405024  L 110.54075 179.405662  z " style="fill:#e2e2e2;stroke:#ffffff;stroke-width:0.886227;"/>
    <path clip-path="url(#id0:p068aea1841)" d="M 98.14075 179.405024  L 98.14075 175.803188  L 110.54075 175.803188  L 110.54075 179.405024  z " style="fill:#bac0f2;stroke:#ffffff;stroke-width:0.886227;"/>
    <path clip-path="url(#id0:p068aea1841)" d="M 110.54075 180.122969  L 110.54075 179.297907  L 122.94075 179.297907  L 122.94075 180.122969  z " style="fill:#edb4b4;stroke:#ffffff;stroke-width:0.886227;"/>
    <path clip-path="url(#id0:p068aea1841)" d="M 110.54075 179.297907  L 110.54075 179.297269  L 122.94075 179.297269  L 122.94075 179.297907  z " style="fill:#e2e2e2;stroke:#ffffff;stroke-width:0.886227;"/>
    <path clip-path="url(#id0:p068aea1841)" d="M 110.54075 179.297269  L 110.54075 172.816641  L 122.94075 172.816641  L 122.94075 179.297269  z " style="fill:#bac0f2;stroke:#ffffff;stroke-width:0.886227;"/>
    <path clip-path="url(#id0:p068aea1841)" d="M 122.94075 180.122969  L 122.94075 178.979741  L 135.34075 178.979741  L 135.34075 180.122969  z " style="fill:#edb4b4;stroke:#ffffff;stroke-width:0.886227;"/>
    <path clip-path="url(#id0:p068aea1841)" d="M 122.94075 178.979741  L 122.94075 178.944035  L 135.34075 178.944035  L 135.34075 178.979741  z " style="fill:#e2e2e2;stroke:#ffffff;stroke-width:0.886227;"/>
    <path clip-path="url(#id0:p068aea1841)" d="M 122.94075 178.944035  L 122.94075 169.860062  L 135.34075 169.860062  L 135.34075 178.944035  z " style="fill:#bac0f2;stroke:#ffffff;stroke-width:0.886227;"/>
    <path clip-path="url(#id0:p068aea1841)" d="M 135.34075 180.122969  L 135.34075 178.105583  L 147.74075 178.105583  L 147.74075 180.122969  z " style="fill:#edb4b4;stroke:#ffffff;stroke-width:0.886227;"/>
    <path clip-path="url(#id0:p068aea1841)" d="M 135.34075 178.105583  L 135.34075 177.735134  L 147.74075 177.735134  L 147.74075 178.105583  z " style="fill:#e2e2e2;stroke:#ffffff;stroke-width:0.886227;"/>
    <path clip-path="url(#id0:p068aea1841)" d="M 135.34075 177.735134  L 135.34075 164.909688  L 147.74075 164.909688  L 147.74075 177.735134  z " style="fill:#bac0f2;stroke:#ffffff;stroke-width:0.886227;"/>
    <path clip-path="url(#id0:p068aea1841)" d="M 147.74075 180.122969  L 147.74075 176.992961  L 160.14075 176.992961  L 160.14075 180.122969  z " style="fill:#edb4b4;stroke:#ffffff;stroke-width:0.886227;"/>
    <path clip-path="url(#id0:p068aea1841)" d="M 147.74075 176.992961  L 147.74075 174.839127  L 160.14075 174.839127  L 160.14075 176.992961  z " style="fill:#e2e2e2;stroke:#ffffff;stroke-width:0.886227;"/>
    <path clip-path="url(#id0:p068aea1841)" d="M 147.74075 174.839127  L 147.74075 155.458454  L 160.14075 155.458454  L 160.14075 174.839127  z " style="fill:#bac0f2;stroke:#ffffff;stroke-width:0.886227;"/>
    <path clip-path="url(#id0:p068aea1841)" d="M 160.14075 180.122969  L 160.14075 176.712414  L 172.54075 176.712414  L 172.54075 180.122969  z " style="fill:#edb4b4;stroke:#ffffff;stroke-width:0.886227;"/>
    <path clip-path="url(#id0:p068aea1841)" d="M 160.14075 176.712414  L 160.14075 173.9994  L 172.54075 173.9994  L 172.54075 176.712414  z " style="fill:#e2e2e2;stroke:#ffffff;stroke-width:0.886227;"/>
    <path clip-path="url(#id0:p068aea1841)" d="M 160.14075 173.9994  L 160.14075 145.705631  L 172.54075 145.705631  L 172.54075 173.9994  z " style="fill:#bac0f2;stroke:#ffffff;stroke-width:0.886227;"/>
    <path clip-path="url(#id0:p068aea1841)" d="M 172.54075 180.122969  L 172.54075 174.988327  L 184.94075 174.988327  L 184.94075 180.122969  z " style="fill:#edb4b4;stroke:#ffffff;stroke-width:0.886227;"/>
    <path clip-path="url(#id0:p068aea1841)" d="M 172.54075 174.988327  L 172.54075 172.268937  L 184.94075 172.268937  L 184.94075 174.988327  z " style="fill:#e2e2e2;stroke:#ffffff;stroke-width:0.886227;"/>
    <path clip-path="url(#id0:p068aea1841)" d="M 172.54075 172.268937  L 172.54075 133.007707  L 184.94075 133.007707  L 184.94075 172.268937  z " style="fill:#bac0f2;stroke:#ffffff;stroke-width:0.886227;"/>
    <path clip-path="url(#id0:p068aea1841)" d="M 184.94075 180.122969  L 184.94075 173.021312  L 197.34075 173.021312  L 197.34075 180.122969  z " style="fill:#edb4b4;stroke:#ffffff;stroke-width:0.886227;"/>
    <path clip-path="url(#id0:p068aea1841)" d="M 184.94075 173.021312  L 184.94075 170.115104  L 197.34075 170.115104  L 197.34075 173.021312  z " style="fill:#e2e2e2;stroke:#ffffff;stroke-width:0.886227;"/>
    <path clip-path="url(#id0:p068aea1841)" d="M 184.94075 170.115104  L 184.94075 115.359408  L 197.34075 115.359408  L 197.34075 170.115104  z " style="fill:#bac0f2;stroke:#ffffff;stroke-width:0.886227;"/>
    <path clip-path="url(#id0:p068aea1841)" d="M 197.34075 180.122969  L 197.34075 170.618175  L 209.74075 170.618175  L 209.74075 180.122969  z " style="fill:#edb4b4;stroke:#ffffff;stroke-width:0.886227;"/>
    <path clip-path="url(#id0:p068aea1841)" d="M 197.34075 170.618175  L 197.34075 168.010366  L 209.74075 168.010366  L 209.74075 170.618175  z " style="fill:#e2e2e2;stroke:#ffffff;stroke-width:0.886227;"/>
    <path clip-path="url(#id0:p068aea1841)" d="M 197.34075 168.010366  L 197.34075 94.139241  L 209.74075 94.139241  L 209.74075 168.010366  z " style="fill:#bac0f2;stroke:#ffffff;stroke-width:0.886227;"/>
    <path clip-path="url(#id0:p068aea1841)" d="M 209.74075 180.122969  L 209.74075 167.414842  L 222.14075 167.414842  L 222.14075 180.122969  z " style="fill:#edb4b4;stroke:#ffffff;stroke-width:0.886227;"/>
    <path clip-path="url(#id0:p068aea1841)" d="M 209.74075 167.414842  L 209.74075 166.019123  L 222.14075 166.019123  L 222.14075 167.414842  z " style="fill:#e2e2e2;stroke:#ffffff;stroke-width:0.886227;"/>
    <path clip-path="url(#id0:p068aea1841)" d="M 209.74075 166.019123  L 209.74075 71.159281  L 222.14075 71.159281  L 222.14075 166.019123  z " style="fill:#bac0f2;stroke:#ffffff;stroke-width:0.886227;"/>
    <path clip-path="url(#id0:p068aea1841)" d="M 222.14075 180.122969  L 222.14075 163.562427  L 234.54075 163.562427  L 234.54075 180.122969  z " style="fill:#edb4b4;stroke:#ffffff;stroke-width:0.886227;"/>
    <path clip-path="url(#id0:p068aea1841)" d="M 222.14075 163.562427  L 222.14075 162.571587  L 234.54075 162.571587  L 234.54075 163.562427  z " style="fill:#e2e2e2;stroke:#ffffff;stroke-width:0.886227;"/>
    <path clip-path="url(#id0:p068aea1841)" d="M 222.14075 162.571587  L 222.14075 49.551449  L 234.54075 49.551449  L 234.54075 162.571587  z " style="fill:#bac0f2;stroke:#ffffff;stroke-width:0.886227;"/>
    <path clip-path="url(#id0:p068aea1841)" d="M 234.54075 180.122969  L 234.54075 161.594774  L 246.94075 161.594774  L 246.94075 180.122969  z " style="fill:#edb4b4;stroke:#ffffff;stroke-width:0.886227;"/>
    <path clip-path="url(#id0:p068aea1841)" d="M 234.54075 161.594774  L 234.54075 160.572692  L 246.94075 160.572692  L 246.94075 161.594774  z " style="fill:#e2e2e2;stroke:#ffffff;stroke-width:0.886227;"/>
    <path clip-path="url(#id0:p068aea1841)" d="M 234.54075 160.572692  L 234.54075 35.745365  L 246.94075 35.745365  L 246.94075 160.572692  z " style="fill:#bac0f2;stroke:#ffffff;stroke-width:0.886227;"/>
    <path clip-path="url(#id0:p068aea1841)" d="M 246.94075 180.122969  L 246.94075 159.396309  L 259.34075 159.396309  L 259.34075 180.122969  z " style="fill:#edb4b4;stroke:#ffffff;stroke-width:0.886227;"/>
    <path clip-path="url(#id0:p068aea1841)" d="M 246.94075 159.396309  L 246.94075 158.869646  L 259.34075 158.869646  L 259.34075 159.396309  z " style="fill:#e2e2e2;stroke:#ffffff;stroke-width:0.886227;"/>
    <path clip-path="url(#id0:p068aea1841)" d="M 246.94075 158.869646  L 246.94075 24.469302  L 259.34075 24.469302  L 259.34075 158.869646  z " style="fill:#bac0f2;stroke:#ffffff;stroke-width:0.886227;"/>
    <path clip-path="url(#id0:p068aea1841)" d="M 259.34075 180.122969  L 259.34075 160.564403  L 271.74075 160.564403  L 271.74075 180.122969  z " style="fill:#edb4b4;stroke:#ffffff;stroke-width:0.886227;"/>
    <path clip-path="url(#id0:p068aea1841)" d="M 259.34075 160.564403  L 259.34075 160.046667  L 271.74075 160.046667  L 271.74075 160.564403  z " style="fill:#e2e2e2;stroke:#ffffff;stroke-width:0.886227;"/>
    <path clip-path="url(#id0:p068aea1841)" d="M 259.34075 160.046667  L 259.34075 17.064145  L 271.74075 17.064145  L 271.74075 160.046667  z " style="fill:#bac0f2;stroke:#ffffff;stroke-width:0.886227;"/>
    <path clip-path="url(#id0:p068aea1841)" d="M 271.74075 180.122969  L 271.74075 178.59909  L 284.14075 178.59909  L 284.14075 180.122969  z " style="fill:#edb4b4;stroke:#ffffff;stroke-width:0.886227;"/>
    <path clip-path="url(#id0:p068aea1841)" d="M 271.74075 178.59909  L 271.74075 178.55127  L 284.14075 178.55127  L 284.14075 178.59909  z " style="fill:#e2e2e2;stroke:#ffffff;stroke-width:0.886227;"/>
    <path clip-path="url(#id0:p068aea1841)" d="M 271.74075 178.55127  L 271.74075 164.627229  L 284.14075 164.627229  L 284.14075 178.55127  z " style="fill:#bac0f2;stroke:#ffffff;stroke-width:0.886227;"/>
   </g>
   <g id="id0:patch_3">
    <path d="M 46.867234 98.165937  L 145.254266 98.165937  L 145.254266 7.2  L 46.867234 7.2  z " style="fill:none;"/>
   </g>
   <g id="id0:text_11">
    <!-- Citation Style -->
    <defs>
     <path d="M 64.40625 67.28125  L 64.40625 56.890625  Q 59.421875 61.53125 53.78125 63.8125  Q 48.140625 66.109375 41.796875 66.109375  Q 29.296875 66.109375 22.65625 58.46875  Q 16.015625 50.828125 16.015625 36.375  Q 16.015625 21.96875 22.65625 14.328125  Q 29.296875 6.6875 41.796875 6.6875  Q 48.140625 6.6875 53.78125 8.984375  Q 59.421875 11.28125 64.40625 15.921875  L 64.40625 5.609375  Q 59.234375 2.09375 53.4375 0.328125  Q 47.65625 -1.421875 41.21875 -1.421875  Q 24.65625 -1.421875 15.125 8.703125  Q 5.609375 18.84375 5.609375 36.375  Q 5.609375 53.953125 15.125 64.078125  Q 24.65625 74.21875 41.21875 74.21875  Q 47.75 74.21875 53.53125 72.484375  Q 59.328125 70.75 64.40625 67.28125  z " id="id0:DejaVuSans-43"/>
     <path d="M 9.421875 54.6875  L 18.40625 54.6875  L 18.40625 0  L 9.421875 0  z M 9.421875 75.984375  L 18.40625 75.984375  L 18.40625 64.59375  L 9.421875 64.59375  z " id="id0:DejaVuSans-69"/>
     <path d="M 18.3125 70.21875  L 18.3125 54.6875  L 36.8125 54.6875  L 36.8125 47.703125  L 18.3125 47.703125  L 18.3125 18.015625  Q 18.3125 11.328125 20.140625 9.421875  Q 21.96875 7.515625 27.59375 7.515625  L 36.8125 7.515625  L 36.8125 0  L 27.59375 0  Q 17.1875 0 13.234375 3.875  Q 9.28125 7.765625 9.28125 18.015625  L 9.28125 47.703125  L 2.6875 47.703125  L 2.6875 54.6875  L 9.28125 54.6875  L 9.28125 70.21875  z " id="id0:DejaVuSans-74"/>
     <path d="M 34.28125 27.484375  Q 23.390625 27.484375 19.1875 25  Q 14.984375 22.515625 14.984375 16.5  Q 14.984375 11.71875 18.140625 8.90625  Q 21.296875 6.109375 26.703125 6.109375  Q 34.1875 6.109375 38.703125 11.40625  Q 43.21875 16.703125 43.21875 25.484375  L 43.21875 27.484375  z M 52.203125 31.203125  L 52.203125 0  L 43.21875 0  L 43.21875 8.296875  Q 40.140625 3.328125 35.546875 0.953125  Q 30.953125 -1.421875 24.3125 -1.421875  Q 15.921875 -1.421875 10.953125 3.296875  Q 6 8.015625 6 15.921875  Q 6 25.140625 12.171875 29.828125  Q 18.359375 34.515625 30.609375 34.515625  L 43.21875 34.515625  L 43.21875 35.40625  Q 43.21875 41.609375 39.140625 45  Q 35.0625 48.390625 27.6875 48.390625  Q 23 48.390625 18.546875 47.265625  Q 14.109375 46.140625 10.015625 43.890625  L 10.015625 52.203125  Q 14.9375 54.109375 19.578125 55.046875  Q 24.21875 56 28.609375 56  Q 40.484375 56 46.34375 49.84375  Q 52.203125 43.703125 52.203125 31.203125  z " id="id0:DejaVuSans-61"/>
     <path d="M 30.609375 48.390625  Q 23.390625 48.390625 19.1875 42.75  Q 14.984375 37.109375 14.984375 27.296875  Q 14.984375 17.484375 19.15625 11.84375  Q 23.34375 6.203125 30.609375 6.203125  Q 37.796875 6.203125 41.984375 11.859375  Q 46.1875 17.53125 46.1875 27.296875  Q 46.1875 37.015625 41.984375 42.703125  Q 37.796875 48.390625 30.609375 48.390625  z M 30.609375 56  Q 42.328125 56 49.015625 48.375  Q 55.71875 40.765625 55.71875 27.296875  Q 55.71875 13.875 49.015625 6.21875  Q 42.328125 -1.421875 30.609375 -1.421875  Q 18.84375 -1.421875 12.171875 6.21875  Q 5.515625 13.875 5.515625 27.296875  Q 5.515625 40.765625 12.171875 48.375  Q 18.84375 56 30.609375 56  z " id="id0:DejaVuSans-6f"/>
     <path d="M 54.890625 33.015625  L 54.890625 0  L 45.90625 0  L 45.90625 32.71875  Q 45.90625 40.484375 42.875 44.328125  Q 39.84375 48.1875 33.796875 48.1875  Q 26.515625 48.1875 22.3125 43.546875  Q 18.109375 38.921875 18.109375 30.90625  L 18.109375 0  L 9.078125 0  L 9.078125 54.6875  L 18.109375 54.6875  L 18.109375 46.1875  Q 21.34375 51.125 25.703125 53.5625  Q 30.078125 56 35.796875 56  Q 45.21875 56 50.046875 50.171875  Q 54.890625 44.34375 54.890625 33.015625  z " id="id0:DejaVuSans-6e"/>
     <path id="id0:DejaVuSans-20"/>
     <path d="M 53.515625 70.515625  L 53.515625 60.890625  Q 47.90625 63.578125 42.921875 64.890625  Q 37.9375 66.21875 33.296875 66.21875  Q 25.25 66.21875 20.875 63.09375  Q 16.5 59.96875 16.5 54.203125  Q 16.5 49.359375 19.40625 46.890625  Q 22.3125 44.4375 30.421875 42.921875  L 36.375 41.703125  Q 47.40625 39.59375 52.65625 34.296875  Q 57.90625 29 57.90625 20.125  Q 57.90625 9.515625 50.796875 4.046875  Q 43.703125 -1.421875 29.984375 -1.421875  Q 24.8125 -1.421875 18.96875 -0.25  Q 13.140625 0.921875 6.890625 3.21875  L 6.890625 13.375  Q 12.890625 10.015625 18.65625 8.296875  Q 24.421875 6.59375 29.984375 6.59375  Q 38.421875 6.59375 43.015625 9.90625  Q 47.609375 13.234375 47.609375 19.390625  Q 47.609375 24.75 44.3125 27.78125  Q 41.015625 30.8125 33.5 32.328125  L 27.484375 33.5  Q 16.453125 35.6875 11.515625 40.375  Q 6.59375 45.0625 6.59375 53.421875  Q 6.59375 63.09375 13.40625 68.65625  Q 20.21875 74.21875 32.171875 74.21875  Q 37.3125 74.21875 42.625 73.28125  Q 47.953125 72.359375 53.515625 70.515625  z " id="id0:DejaVuSans-53"/>
     <path d="M 32.171875 -5.078125  Q 28.375 -14.84375 24.75 -17.8125  Q 21.140625 -20.796875 15.09375 -20.796875  L 7.90625 -20.796875  L 7.90625 -13.28125  L 13.1875 -13.28125  Q 16.890625 -13.28125 18.9375 -11.515625  Q 21 -9.765625 23.484375 -3.21875  L 25.09375 0.875  L 2.984375 54.6875  L 12.5 54.6875  L 29.59375 11.921875  L 46.6875 54.6875  L 56.203125 54.6875  z " id="id0:DejaVuSans-79"/>
     <path d="M 9.421875 75.984375  L 18.40625 75.984375  L 18.40625 0  L 9.421875 0  z " id="id0:DejaVuSans-6c"/>
     <path d="M 56.203125 29.59375  L 56.203125 25.203125  L 14.890625 25.203125  Q 15.484375 15.921875 20.484375 11.0625  Q 25.484375 6.203125 34.421875 6.203125  Q 39.59375 6.203125 44.453125 7.46875  Q 49.3125 8.734375 54.109375 11.28125  L 54.109375 2.78125  Q 49.265625 0.734375 44.1875 -0.34375  Q 39.109375 -1.421875 33.890625 -1.421875  Q 20.796875 -1.421875 13.15625 6.1875  Q 5.515625 13.8125 5.515625 26.8125  Q 5.515625 40.234375 12.765625 48.109375  Q 20.015625 56 32.328125 56  Q 43.359375 56 49.78125 48.890625  Q 56.203125 41.796875 56.203125 29.59375  z M 47.21875 32.234375  Q 47.125 39.59375 43.09375 43.984375  Q 39.0625 48.390625 32.421875 48.390625  Q 24.90625 48.390625 20.390625 44.140625  Q 15.875 39.890625 15.1875 32.171875  z " id="id0:DejaVuSans-65"/>
    </defs>
    <g transform="translate(59.067234 30.793594)scale(0.11 -0.11)">
     <use xlink:href="#id0:DejaVuSans-43"/>
     <use x="69.824219" xlink:href="#id0:DejaVuSans-69"/>
     <use x="97.607422" xlink:href="#id0:DejaVuSans-74"/>
     <use x="136.816406" xlink:href="#id0:DejaVuSans-61"/>
     <use x="198.095703" xlink:href="#id0:DejaVuSans-74"/>
     <use x="237.304688" xlink:href="#id0:DejaVuSans-69"/>
     <use x="265.087891" xlink:href="#id0:DejaVuSans-6f"/>
     <use x="326.269531" xlink:href="#id0:DejaVuSans-6e"/>
     <use x="389.648438" xlink:href="#id0:DejaVuSans-20"/>
     <use x="421.435547" xlink:href="#id0:DejaVuSans-53"/>
     <use x="484.912109" xlink:href="#id0:DejaVuSans-74"/>
     <use x="524.121094" xlink:href="#id0:DejaVuSans-79"/>
     <use x="583.300781" xlink:href="#id0:DejaVuSans-6c"/>
     <use x="611.083984" xlink:href="#id0:DejaVuSans-65"/>
    </g>
   </g>
   <g id="id0:patch_4">
    <path clip-path="url(#id0:p2fa076a439)" d="M 59.067234 50.285937  L 74.907234 50.285937  L 74.907234 34.445937  L 59.067234 34.445937  z " style="fill:#f2f2f2;stroke:#cccccc;stroke-linejoin:miter;"/>
   </g>
   <g id="id0:patch_5">
    <path clip-path="url(#id0:p2fa076a439)" d="M 59.510348 49.842824  L 74.464121 49.842824  L 74.464121 34.889051  L 59.510348 34.889051  z " style="fill:#bac0f2;stroke:#ffffff;stroke-linecap:square;stroke-linejoin:miter;stroke-width:0.886227;"/>
   </g>
   <g id="id0:text_12">
    <!-- number -->
    <defs>
     <path d="M 8.5 21.578125  L 8.5 54.6875  L 17.484375 54.6875  L 17.484375 21.921875  Q 17.484375 14.15625 20.5 10.265625  Q 23.53125 6.390625 29.59375 6.390625  Q 36.859375 6.390625 41.078125 11.03125  Q 45.3125 15.671875 45.3125 23.6875  L 45.3125 54.6875  L 54.296875 54.6875  L 54.296875 0  L 45.3125 0  L 45.3125 8.40625  Q 42.046875 3.421875 37.71875 1  Q 33.40625 -1.421875 27.6875 -1.421875  Q 18.265625 -1.421875 13.375 4.4375  Q 8.5 10.296875 8.5 21.578125  z M 31.109375 56  z " id="id0:DejaVuSans-75"/>
     <path d="M 52 44.1875  Q 55.375 50.25 60.0625 53.125  Q 64.75 56 71.09375 56  Q 79.640625 56 84.28125 50.015625  Q 88.921875 44.046875 88.921875 33.015625  L 88.921875 0  L 79.890625 0  L 79.890625 32.71875  Q 79.890625 40.578125 77.09375 44.375  Q 74.3125 48.1875 68.609375 48.1875  Q 61.625 48.1875 57.5625 43.546875  Q 53.515625 38.921875 53.515625 30.90625  L 53.515625 0  L 44.484375 0  L 44.484375 32.71875  Q 44.484375 40.625 41.703125 44.40625  Q 38.921875 48.1875 33.109375 48.1875  Q 26.21875 48.1875 22.15625 43.53125  Q 18.109375 38.875 18.109375 30.90625  L 18.109375 0  L 9.078125 0  L 9.078125 54.6875  L 18.109375 54.6875  L 18.109375 46.1875  Q 21.1875 51.21875 25.484375 53.609375  Q 29.78125 56 35.6875 56  Q 41.65625 56 45.828125 52.96875  Q 50 49.953125 52 44.1875  z " id="id0:DejaVuSans-6d"/>
     <path d="M 48.6875 27.296875  Q 48.6875 37.203125 44.609375 42.84375  Q 40.53125 48.484375 33.40625 48.484375  Q 26.265625 48.484375 22.1875 42.84375  Q 18.109375 37.203125 18.109375 27.296875  Q 18.109375 17.390625 22.1875 11.75  Q 26.265625 6.109375 33.40625 6.109375  Q 40.53125 6.109375 44.609375 11.75  Q 48.6875 17.390625 48.6875 27.296875  z M 18.109375 46.390625  Q 20.953125 51.265625 25.265625 53.625  Q 29.59375 56 35.59375 56  Q 45.5625 56 51.78125 48.09375  Q 58.015625 40.1875 58.015625 27.296875  Q 58.015625 14.40625 51.78125 6.484375  Q 45.5625 -1.421875 35.59375 -1.421875  Q 29.59375 -1.421875 25.265625 0.953125  Q 20.953125 3.328125 18.109375 8.203125  L 18.109375 0  L 9.078125 0  L 9.078125 75.984375  L 18.109375 75.984375  z " id="id0:DejaVuSans-62"/>
     <path d="M 41.109375 46.296875  Q 39.59375 47.171875 37.8125 47.578125  Q 36.03125 48 33.890625 48  Q 26.265625 48 22.1875 43.046875  Q 18.109375 38.09375 18.109375 28.8125  L 18.109375 0  L 9.078125 0  L 9.078125 54.6875  L 18.109375 54.6875  L 18.109375 46.1875  Q 20.953125 51.171875 25.484375 53.578125  Q 30.03125 56 36.53125 56  Q 37.453125 56 38.578125 55.875  Q 39.703125 55.765625 41.0625 55.515625  z " id="id0:DejaVuSans-72"/>
    </defs>
    <g transform="translate(77.907234 44.794187)scale(0.088 -0.088)">
     <use xlink:href="#id0:DejaVuSans-6e"/>
     <use x="63.378906" xlink:href="#id0:DejaVuSans-75"/>
     <use x="126.757812" xlink:href="#id0:DejaVuSans-6d"/>
     <use x="224.169922" xlink:href="#id0:DejaVuSans-62"/>
     <use x="287.646484" xlink:href="#id0:DejaVuSans-65"/>
     <use x="349.169922" xlink:href="#id0:DejaVuSans-72"/>
    </g>
   </g>
   <g id="id0:patch_6">
    <path clip-path="url(#id0:p9e1cb1fd83)" d="M 59.067234 68.125937  L 74.907234 68.125937  L 74.907234 52.285937  L 59.067234 52.285937  z " style="fill:#f2f2f2;stroke:#cccccc;stroke-linejoin:miter;"/>
   </g>
   <g id="id0:patch_7">
    <path clip-path="url(#id0:p9e1cb1fd83)" d="M 59.510348 67.682824  L 74.464121 67.682824  L 74.464121 52.729051  L 59.510348 52.729051  z " style="fill:#e2e2e2;stroke:#ffffff;stroke-linecap:square;stroke-linejoin:miter;stroke-width:0.886227;"/>
   </g>
   <g id="id0:text_13">
    <!-- unknown -->
    <defs>
     <path d="M 9.078125 75.984375  L 18.109375 75.984375  L 18.109375 31.109375  L 44.921875 54.6875  L 56.390625 54.6875  L 27.390625 29.109375  L 57.625 0  L 45.90625 0  L 18.109375 26.703125  L 18.109375 0  L 9.078125 0  z " id="id0:DejaVuSans-6b"/>
     <path d="M 4.203125 54.6875  L 13.1875 54.6875  L 24.421875 12.015625  L 35.59375 54.6875  L 46.1875 54.6875  L 57.421875 12.015625  L 68.609375 54.6875  L 77.59375 54.6875  L 63.28125 0  L 52.6875 0  L 40.921875 44.828125  L 29.109375 0  L 18.5 0  z " id="id0:DejaVuSans-77"/>
    </defs>
    <g transform="translate(77.907234 62.634187)scale(0.088 -0.088)">
     <use xlink:href="#id0:DejaVuSans-75"/>
     <use x="63.378906" xlink:href="#id0:DejaVuSans-6e"/>
     <use x="126.757812" xlink:href="#id0:DejaVuSans-6b"/>
     <use x="184.667969" xlink:href="#id0:DejaVuSans-6e"/>
     <use x="248.046875" xlink:href="#id0:DejaVuSans-6f"/>
     <use x="309.228516" xlink:href="#id0:DejaVuSans-77"/>
     <use x="391.015625" xlink:href="#id0:DejaVuSans-6e"/>
    </g>
   </g>
   <g id="id0:patch_8">
    <path clip-path="url(#id0:p02998503ca)" d="M 59.067234 85.965937  L 74.907234 85.965937  L 74.907234 70.125937  L 59.067234 70.125937  z " style="fill:#f2f2f2;stroke:#cccccc;stroke-linejoin:miter;"/>
   </g>
   <g id="id0:patch_9">
    <path clip-path="url(#id0:p02998503ca)" d="M 59.510348 85.522824  L 74.464121 85.522824  L 74.464121 70.569051  L 59.510348 70.569051  z " style="fill:#edb4b4;stroke:#ffffff;stroke-linecap:square;stroke-linejoin:miter;stroke-width:0.886227;"/>
   </g>
   <g id="id0:text_14">
    <!-- author -->
    <defs>
     <path d="M 54.890625 33.015625  L 54.890625 0  L 45.90625 0  L 45.90625 32.71875  Q 45.90625 40.484375 42.875 44.328125  Q 39.84375 48.1875 33.796875 48.1875  Q 26.515625 48.1875 22.3125 43.546875  Q 18.109375 38.921875 18.109375 30.90625  L 18.109375 0  L 9.078125 0  L 9.078125 75.984375  L 18.109375 75.984375  L 18.109375 46.1875  Q 21.34375 51.125 25.703125 53.5625  Q 30.078125 56 35.796875 56  Q 45.21875 56 50.046875 50.171875  Q 54.890625 44.34375 54.890625 33.015625  z " id="id0:DejaVuSans-68"/>
    </defs>
    <g transform="translate(77.907234 80.474187)scale(0.088 -0.088)">
     <use xlink:href="#id0:DejaVuSans-61"/>
     <use x="61.279297" xlink:href="#id0:DejaVuSans-75"/>
     <use x="124.658203" xlink:href="#id0:DejaVuSans-74"/>
     <use x="163.867188" xlink:href="#id0:DejaVuSans-68"/>
     <use x="227.246094" xlink:href="#id0:DejaVuSans-6f"/>
     <use x="288.427734" xlink:href="#id0:DejaVuSans-72"/>
    </g>
   </g>
  </g>
 </g>
 </g>
  <g id="id1:id1" transform="matrix(1.25,0,0,1.25,351.25,2.5)"><g id="id1:figure_1">
  <g id="id1:patch_1">
   <path d="M 0 196.93675  L 264.859375 196.93675  L 264.859375 0  L 0 0  z " style="fill:#ffffff;stroke:#ffffff;stroke-linejoin:miter;"/>
  </g>
  <g id="id1:axes_1">
   <g id="id1:patch_2">
    <path d="M 31.709375 176.27  L 254.909375 176.27  L 254.909375 9.95  L 31.709375 9.95  z " style="fill:#ffffff;stroke:#7f7f7f;stroke-linejoin:miter;"/>
   </g>
   <g id="id1:matplotlib.axis_1">
    <g id="id1:xtick_1">
     <g id="id1:line2d_1">
      <path d="M 37.909375 176.27  " style="fill:none;stroke:#000000;stroke-width:1.5;"/>
      <defs>
       <path d="M 0 0  L 0 2.75  " id="id1:m4451fb8f62" style="stroke:#000000;"/>
      </defs>
      <g>
       <use style="stroke:#000000;" x="37.909375" xlink:href="#id1:m4451fb8f62" y="176.27"/>
      </g>
     </g>
     <g id="id1:text_1">
      <!-- 2000 -->
      <defs>
       <path d="M 19.1875 8.296875  L 53.609375 8.296875  L 53.609375 0  L 7.328125 0  L 7.328125 8.296875  Q 12.9375 14.109375 22.625 23.890625  Q 32.328125 33.6875 34.8125 36.53125  Q 39.546875 41.84375 41.421875 45.53125  Q 43.3125 49.21875 43.3125 52.78125  Q 43.3125 58.59375 39.234375 62.25  Q 35.15625 65.921875 28.609375 65.921875  Q 23.96875 65.921875 18.8125 64.3125  Q 13.671875 62.703125 7.8125 59.421875  L 7.8125 69.390625  Q 13.765625 71.78125 18.9375 73  Q 24.125 74.21875 28.421875 74.21875  Q 39.75 74.21875 46.484375 68.546875  Q 53.21875 62.890625 53.21875 53.421875  Q 53.21875 48.921875 51.53125 44.890625  Q 49.859375 40.875 45.40625 35.40625  Q 44.1875 33.984375 37.640625 27.21875  Q 31.109375 20.453125 19.1875 8.296875  z " id="id1:DejaVuSans-32"/>
       <path d="M 31.78125 66.40625  Q 24.171875 66.40625 20.328125 58.90625  Q 16.5 51.421875 16.5 36.375  Q 16.5 21.390625 20.328125 13.890625  Q 24.171875 6.390625 31.78125 6.390625  Q 39.453125 6.390625 43.28125 13.890625  Q 47.125 21.390625 47.125 36.375  Q 47.125 51.421875 43.28125 58.90625  Q 39.453125 66.40625 31.78125 66.40625  z M 31.78125 74.21875  Q 44.046875 74.21875 50.515625 64.515625  Q 56.984375 54.828125 56.984375 36.375  Q 56.984375 17.96875 50.515625 8.265625  Q 44.046875 -1.421875 31.78125 -1.421875  Q 19.53125 -1.421875 13.0625 8.265625  Q 6.59375 17.96875 6.59375 36.375  Q 6.59375 54.828125 13.0625 64.515625  Q 19.53125 74.21875 31.78125 74.21875  z " id="id1:DejaVuSans-30"/>
      </defs>
      <g style="fill:#4d4d4d;" transform="translate(26.711375 187.906625)scale(0.088 -0.088)">
       <use xlink:href="#id1:DejaVuSans-32"/>
       <use x="63.623047" xlink:href="#id1:DejaVuSans-30"/>
       <use x="127.246094" xlink:href="#id1:DejaVuSans-30"/>
       <use x="190.869141" xlink:href="#id1:DejaVuSans-30"/>
      </g>
     </g>
    </g>
    <g id="id1:xtick_2">
     <g id="id1:line2d_2">
      <path d="M 99.909375 176.27  " style="fill:none;stroke:#000000;stroke-width:1.5;"/>
      <g>
       <use style="stroke:#000000;" x="99.909375" xlink:href="#id1:m4451fb8f62" y="176.27"/>
      </g>
     </g>
     <g id="id1:text_2">
      <!-- 2005 -->
      <defs>
       <path d="M 10.796875 72.90625  L 49.515625 72.90625  L 49.515625 64.59375  L 19.828125 64.59375  L 19.828125 46.734375  Q 21.96875 47.46875 24.109375 47.828125  Q 26.265625 48.1875 28.421875 48.1875  Q 40.625 48.1875 47.75 41.5  Q 54.890625 34.8125 54.890625 23.390625  Q 54.890625 11.625 47.5625 5.09375  Q 40.234375 -1.421875 26.90625 -1.421875  Q 22.3125 -1.421875 17.546875 -0.640625  Q 12.796875 0.140625 7.71875 1.703125  L 7.71875 11.625  Q 12.109375 9.234375 16.796875 8.0625  Q 21.484375 6.890625 26.703125 6.890625  Q 35.15625 6.890625 40.078125 11.328125  Q 45.015625 15.765625 45.015625 23.390625  Q 45.015625 31 40.078125 35.4375  Q 35.15625 39.890625 26.703125 39.890625  Q 22.75 39.890625 18.8125 39.015625  Q 14.890625 38.140625 10.796875 36.28125  z " id="id1:DejaVuSans-35"/>
      </defs>
      <g style="fill:#4d4d4d;" transform="translate(88.711375 187.906625)scale(0.088 -0.088)">
       <use xlink:href="#id1:DejaVuSans-32"/>
       <use x="63.623047" xlink:href="#id1:DejaVuSans-30"/>
       <use x="127.246094" xlink:href="#id1:DejaVuSans-30"/>
       <use x="190.869141" xlink:href="#id1:DejaVuSans-35"/>
      </g>
     </g>
    </g>
    <g id="id1:xtick_3">
     <g id="id1:line2d_3">
      <path d="M 161.909375 176.27  " style="fill:none;stroke:#000000;stroke-width:1.5;"/>
      <g>
       <use style="stroke:#000000;" x="161.909375" xlink:href="#id1:m4451fb8f62" y="176.27"/>
      </g>
     </g>
     <g id="id1:text_3">
      <!-- 2010 -->
      <defs>
       <path d="M 12.40625 8.296875  L 28.515625 8.296875  L 28.515625 63.921875  L 10.984375 60.40625  L 10.984375 69.390625  L 28.421875 72.90625  L 38.28125 72.90625  L 38.28125 8.296875  L 54.390625 8.296875  L 54.390625 0  L 12.40625 0  z " id="id1:DejaVuSans-31"/>
      </defs>
      <g style="fill:#4d4d4d;" transform="translate(150.711375 187.906625)scale(0.088 -0.088)">
       <use xlink:href="#id1:DejaVuSans-32"/>
       <use x="63.623047" xlink:href="#id1:DejaVuSans-30"/>
       <use x="127.246094" xlink:href="#id1:DejaVuSans-31"/>
       <use x="190.869141" xlink:href="#id1:DejaVuSans-30"/>
      </g>
     </g>
    </g>
    <g id="id1:xtick_4">
     <g id="id1:line2d_4">
      <path d="M 223.909375 176.27  " style="fill:none;stroke:#000000;stroke-width:1.5;"/>
      <g>
       <use style="stroke:#000000;" x="223.909375" xlink:href="#id1:m4451fb8f62" y="176.27"/>
      </g>
     </g>
     <g id="id1:text_4">
      <!-- 2015 -->
      <g style="fill:#4d4d4d;" transform="translate(212.711375 187.906625)scale(0.088 -0.088)">
       <use xlink:href="#id1:DejaVuSans-32"/>
       <use x="63.623047" xlink:href="#id1:DejaVuSans-30"/>
       <use x="127.246094" xlink:href="#id1:DejaVuSans-31"/>
       <use x="190.869141" xlink:href="#id1:DejaVuSans-35"/>
      </g>
     </g>
    </g>
   </g>
   <g id="id1:matplotlib.axis_2">
    <g id="id1:ytick_1">
     <g id="id1:line2d_5">
      <path clip-path="url(#id1:pb9d1e01101)" d="M 31.709375 159.638  L 254.909375 159.638  " style="fill:none;stroke:#e5e5e5;stroke-width:0.8;"/>
     </g>
     <g id="id1:line2d_6">
      <path d="M 31.709375 159.638  " style="fill:none;stroke:#000000;stroke-width:1.5;"/>
      <defs>
       <path d="M 0 0  L -2.75 0  " id="id1:m3b175dd89c" style="stroke:#000000;"/>
      </defs>
      <g>
       <use style="stroke:#000000;" x="31.709375" xlink:href="#id1:m3b175dd89c" y="159.638"/>
      </g>
     </g>
     <g id="id1:text_5">
      <!-- 10% -->
      <defs>
       <path d="M 72.703125 32.078125  Q 68.453125 32.078125 66.03125 28.46875  Q 63.625 24.859375 63.625 18.40625  Q 63.625 12.0625 66.03125 8.421875  Q 68.453125 4.78125 72.703125 4.78125  Q 76.859375 4.78125 79.265625 8.421875  Q 81.6875 12.0625 81.6875 18.40625  Q 81.6875 24.8125 79.265625 28.4375  Q 76.859375 32.078125 72.703125 32.078125  z M 72.703125 38.28125  Q 80.421875 38.28125 84.953125 32.90625  Q 89.5 27.546875 89.5 18.40625  Q 89.5 9.28125 84.9375 3.921875  Q 80.375 -1.421875 72.703125 -1.421875  Q 64.890625 -1.421875 60.34375 3.921875  Q 55.8125 9.28125 55.8125 18.40625  Q 55.8125 27.59375 60.375 32.9375  Q 64.9375 38.28125 72.703125 38.28125  z M 22.3125 68.015625  Q 18.109375 68.015625 15.6875 64.375  Q 13.28125 60.75 13.28125 54.390625  Q 13.28125 47.953125 15.671875 44.328125  Q 18.0625 40.71875 22.3125 40.71875  Q 26.5625 40.71875 28.96875 44.328125  Q 31.390625 47.953125 31.390625 54.390625  Q 31.390625 60.6875 28.953125 64.34375  Q 26.515625 68.015625 22.3125 68.015625  z M 66.40625 74.21875  L 74.21875 74.21875  L 28.609375 -1.421875  L 20.796875 -1.421875  z M 22.3125 74.21875  Q 30.03125 74.21875 34.609375 68.875  Q 39.203125 63.53125 39.203125 54.390625  Q 39.203125 45.171875 34.640625 39.84375  Q 30.078125 34.515625 22.3125 34.515625  Q 14.546875 34.515625 10.03125 39.859375  Q 5.515625 45.21875 5.515625 54.390625  Q 5.515625 63.484375 10.046875 68.84375  Q 14.59375 74.21875 22.3125 74.21875  z " id="id1:DejaVuSans-25"/>
      </defs>
      <g style="fill:#4d4d4d;" transform="translate(7.2 162.06625)scale(0.088 -0.088)">
       <use xlink:href="#id1:DejaVuSans-31"/>
       <use x="63.623047" xlink:href="#id1:DejaVuSans-30"/>
       <use x="127.246094" xlink:href="#id1:DejaVuSans-25"/>
      </g>
     </g>
    </g>
    <g id="id1:ytick_2">
     <g id="id1:line2d_7">
      <path clip-path="url(#id1:pb9d1e01101)" d="M 31.709375 126.374  L 254.909375 126.374  " style="fill:none;stroke:#e5e5e5;stroke-width:0.8;"/>
     </g>
     <g id="id1:line2d_8">
      <path d="M 31.709375 126.374  " style="fill:none;stroke:#000000;stroke-width:1.5;"/>
      <g>
       <use style="stroke:#000000;" x="31.709375" xlink:href="#id1:m3b175dd89c" y="126.374"/>
      </g>
     </g>
     <g id="id1:text_6">
      <!-- 30% -->
      <defs>
       <path d="M 40.578125 39.3125  Q 47.65625 37.796875 51.625 33  Q 55.609375 28.21875 55.609375 21.1875  Q 55.609375 10.40625 48.1875 4.484375  Q 40.765625 -1.421875 27.09375 -1.421875  Q 22.515625 -1.421875 17.65625 -0.515625  Q 12.796875 0.390625 7.625 2.203125  L 7.625 11.71875  Q 11.71875 9.328125 16.59375 8.109375  Q 21.484375 6.890625 26.8125 6.890625  Q 36.078125 6.890625 40.9375 10.546875  Q 45.796875 14.203125 45.796875 21.1875  Q 45.796875 27.640625 41.28125 31.265625  Q 36.765625 34.90625 28.71875 34.90625  L 20.21875 34.90625  L 20.21875 43.015625  L 29.109375 43.015625  Q 36.375 43.015625 40.234375 45.921875  Q 44.09375 48.828125 44.09375 54.296875  Q 44.09375 59.90625 40.109375 62.90625  Q 36.140625 65.921875 28.71875 65.921875  Q 24.65625 65.921875 20.015625 65.03125  Q 15.375 64.15625 9.8125 62.3125  L 9.8125 71.09375  Q 15.4375 72.65625 20.34375 73.4375  Q 25.25 74.21875 29.59375 74.21875  Q 40.828125 74.21875 47.359375 69.109375  Q 53.90625 64.015625 53.90625 55.328125  Q 53.90625 49.265625 50.4375 45.09375  Q 46.96875 40.921875 40.578125 39.3125  z " id="id1:DejaVuSans-33"/>
      </defs>
      <g style="fill:#4d4d4d;" transform="translate(7.2 128.80225)scale(0.088 -0.088)">
       <use xlink:href="#id1:DejaVuSans-33"/>
       <use x="63.623047" xlink:href="#id1:DejaVuSans-30"/>
       <use x="127.246094" xlink:href="#id1:DejaVuSans-25"/>
      </g>
     </g>
    </g>
    <g id="id1:ytick_3">
     <g id="id1:line2d_9">
      <path clip-path="url(#id1:pb9d1e01101)" d="M 31.709375 93.11  L 254.909375 93.11  " style="fill:none;stroke:#e5e5e5;stroke-width:0.8;"/>
     </g>
     <g id="id1:line2d_10">
      <path d="M 31.709375 93.11  " style="fill:none;stroke:#000000;stroke-width:1.5;"/>
      <g>
       <use style="stroke:#000000;" x="31.709375" xlink:href="#id1:m3b175dd89c" y="93.11"/>
      </g>
     </g>
     <g id="id1:text_7">
      <!-- 50% -->
      <g style="fill:#4d4d4d;" transform="translate(7.2 95.53825)scale(0.088 -0.088)">
       <use xlink:href="#id1:DejaVuSans-35"/>
       <use x="63.623047" xlink:href="#id1:DejaVuSans-30"/>
       <use x="127.246094" xlink:href="#id1:DejaVuSans-25"/>
      </g>
     </g>
    </g>
    <g id="id1:ytick_4">
     <g id="id1:line2d_11">
      <path clip-path="url(#id1:pb9d1e01101)" d="M 31.709375 59.846  L 254.909375 59.846  " style="fill:none;stroke:#e5e5e5;stroke-width:0.8;"/>
     </g>
     <g id="id1:line2d_12">
      <path d="M 31.709375 59.846  " style="fill:none;stroke:#000000;stroke-width:1.5;"/>
      <g>
       <use style="stroke:#000000;" x="31.709375" xlink:href="#id1:m3b175dd89c" y="59.846"/>
      </g>
     </g>
     <g id="id1:text_8">
      <!-- 70% -->
      <defs>
       <path d="M 8.203125 72.90625  L 55.078125 72.90625  L 55.078125 68.703125  L 28.609375 0  L 18.3125 0  L 43.21875 64.59375  L 8.203125 64.59375  z " id="id1:DejaVuSans-37"/>
      </defs>
      <g style="fill:#4d4d4d;" transform="translate(7.2 62.27425)scale(0.088 -0.088)">
       <use xlink:href="#id1:DejaVuSans-37"/>
       <use x="63.623047" xlink:href="#id1:DejaVuSans-30"/>
       <use x="127.246094" xlink:href="#id1:DejaVuSans-25"/>
      </g>
     </g>
    </g>
    <g id="id1:ytick_5">
     <g id="id1:line2d_13">
      <path clip-path="url(#id1:pb9d1e01101)" d="M 31.709375 26.582  L 254.909375 26.582  " style="fill:none;stroke:#e5e5e5;stroke-width:0.8;"/>
     </g>
     <g id="id1:line2d_14">
      <path d="M 31.709375 26.582  " style="fill:none;stroke:#000000;stroke-width:1.5;"/>
      <g>
       <use style="stroke:#000000;" x="31.709375" xlink:href="#id1:m3b175dd89c" y="26.582"/>
      </g>
     </g>
     <g id="id1:text_9">
      <!-- 90% -->
      <defs>
       <path d="M 10.984375 1.515625  L 10.984375 10.5  Q 14.703125 8.734375 18.5 7.8125  Q 22.3125 6.890625 25.984375 6.890625  Q 35.75 6.890625 40.890625 13.453125  Q 46.046875 20.015625 46.78125 33.40625  Q 43.953125 29.203125 39.59375 26.953125  Q 35.25 24.703125 29.984375 24.703125  Q 19.046875 24.703125 12.671875 31.3125  Q 6.296875 37.9375 6.296875 49.421875  Q 6.296875 60.640625 12.9375 67.421875  Q 19.578125 74.21875 30.609375 74.21875  Q 43.265625 74.21875 49.921875 64.515625  Q 56.59375 54.828125 56.59375 36.375  Q 56.59375 19.140625 48.40625 8.859375  Q 40.234375 -1.421875 26.421875 -1.421875  Q 22.703125 -1.421875 18.890625 -0.6875  Q 15.09375 0.046875 10.984375 1.515625  z M 30.609375 32.421875  Q 37.25 32.421875 41.125 36.953125  Q 45.015625 41.5 45.015625 49.421875  Q 45.015625 57.28125 41.125 61.84375  Q 37.25 66.40625 30.609375 66.40625  Q 23.96875 66.40625 20.09375 61.84375  Q 16.21875 57.28125 16.21875 49.421875  Q 16.21875 41.5 20.09375 36.953125  Q 23.96875 32.421875 30.609375 32.421875  z " id="id1:DejaVuSans-39"/>
      </defs>
      <g style="fill:#4d4d4d;" transform="translate(7.2 29.01025)scale(0.088 -0.088)">
       <use xlink:href="#id1:DejaVuSans-39"/>
       <use x="63.623047" xlink:href="#id1:DejaVuSans-30"/>
       <use x="127.246094" xlink:href="#id1:DejaVuSans-25"/>
      </g>
     </g>
    </g>
    <g id="id1:ytick_6">
     <g id="id1:line2d_15">
      <path clip-path="url(#id1:pb9d1e01101)" d="M 31.709375 143.006  L 254.909375 143.006  " style="fill:none;stroke:#fafafa;"/>
     </g>
     <g id="id1:line2d_16">
      <path d="M 31.709375 143.006  " style="fill:none;stroke:#000000;stroke-width:1.5;"/>
     </g>
    </g>
    <g id="id1:ytick_7">
     <g id="id1:line2d_17">
      <path clip-path="url(#id1:pb9d1e01101)" d="M 31.709375 109.742  L 254.909375 109.742  " style="fill:none;stroke:#fafafa;"/>
     </g>
     <g id="id1:line2d_18">
      <path d="M 31.709375 109.742  " style="fill:none;stroke:#000000;stroke-width:1.5;"/>
     </g>
    </g>
    <g id="id1:ytick_8">
     <g id="id1:line2d_19">
      <path clip-path="url(#id1:pb9d1e01101)" d="M 31.709375 76.478  L 254.909375 76.478  " style="fill:none;stroke:#fafafa;"/>
     </g>
     <g id="id1:line2d_20">
      <path d="M 31.709375 76.478  " style="fill:none;stroke:#000000;stroke-width:1.5;"/>
     </g>
    </g>
    <g id="id1:ytick_9">
     <g id="id1:line2d_21">
      <path clip-path="url(#id1:pb9d1e01101)" d="M 31.709375 43.214  L 254.909375 43.214  " style="fill:none;stroke:#fafafa;"/>
     </g>
     <g id="id1:line2d_22">
      <path d="M 31.709375 43.214  " style="fill:none;stroke:#000000;stroke-width:1.5;"/>
     </g>
    </g>
   </g>
   <g id="id1:PolyCollection_1">
    <path clip-path="url(#id1:pb9d1e01101)" d="M -228.690625 176.27  L -228.690625 93.11  L -216.290625 93.11  L -216.290625 176.27  z " style="fill:#edb4b4;stroke:#ffffff;stroke-width:0.886227;"/>
    <path clip-path="url(#id1:pb9d1e01101)" d="M -228.690625 93.11  L -228.690625 93.11  L -216.290625 93.11  L -216.290625 93.11  z " style="fill:#e2e2e2;stroke:#ffffff;stroke-width:0.886227;"/>
    <path clip-path="url(#id1:pb9d1e01101)" d="M -228.690625 93.11  L -228.690625 9.95  L -216.290625 9.95  L -216.290625 93.11  z " style="fill:#bac0f2;stroke:#ffffff;stroke-width:0.886227;"/>
    <path clip-path="url(#id1:pb9d1e01101)" d="M -216.290625 176.27  L -216.290625 9.95  L -203.890625 9.95  L -203.890625 176.27  z " style="fill:#edb4b4;stroke:#ffffff;stroke-width:0.886227;"/>
    <path clip-path="url(#id1:pb9d1e01101)" d="M -216.290625 9.95  L -216.290625 9.95  L -203.890625 9.95  L -203.890625 9.95  z " style="fill:#e2e2e2;stroke:#ffffff;stroke-width:0.886227;"/>
    <path clip-path="url(#id1:pb9d1e01101)" d="M -216.290625 9.95  L -216.290625 9.95  L -203.890625 9.95  L -203.890625 9.95  z " style="fill:#bac0f2;stroke:#ffffff;stroke-width:0.886227;"/>
    <path clip-path="url(#id1:pb9d1e01101)" d="M -203.890625 176.27  L -203.890625 9.95  L -191.490625 9.95  L -191.490625 176.27  z " style="fill:#edb4b4;stroke:#ffffff;stroke-width:0.886227;"/>
    <path clip-path="url(#id1:pb9d1e01101)" d="M -203.890625 9.95  L -203.890625 9.95  L -191.490625 9.95  L -191.490625 9.95  z " style="fill:#e2e2e2;stroke:#ffffff;stroke-width:0.886227;"/>
    <path clip-path="url(#id1:pb9d1e01101)" d="M -203.890625 9.95  L -203.890625 9.95  L -191.490625 9.95  L -191.490625 9.95  z " style="fill:#bac0f2;stroke:#ffffff;stroke-width:0.886227;"/>
    <path clip-path="url(#id1:pb9d1e01101)" d="M -191.490625 176.27  L -191.490625 9.95  L -179.090625 9.95  L -179.090625 176.27  z " style="fill:#edb4b4;stroke:#ffffff;stroke-width:0.886227;"/>
    <path clip-path="url(#id1:pb9d1e01101)" d="M -191.490625 9.95  L -191.490625 9.95  L -179.090625 9.95  L -179.090625 9.95  z " style="fill:#e2e2e2;stroke:#ffffff;stroke-width:0.886227;"/>
    <path clip-path="url(#id1:pb9d1e01101)" d="M -191.490625 9.95  L -191.490625 9.95  L -179.090625 9.95  L -179.090625 9.95  z " style="fill:#bac0f2;stroke:#ffffff;stroke-width:0.886227;"/>
    <path clip-path="url(#id1:pb9d1e01101)" d="M -179.090625 176.27  L -179.090625 9.95  L -166.690625 9.95  L -166.690625 176.27  z " style="fill:#edb4b4;stroke:#ffffff;stroke-width:0.886227;"/>
    <path clip-path="url(#id1:pb9d1e01101)" d="M -179.090625 9.95  L -179.090625 9.95  L -166.690625 9.95  L -166.690625 9.95  z " style="fill:#e2e2e2;stroke:#ffffff;stroke-width:0.886227;"/>
    <path clip-path="url(#id1:pb9d1e01101)" d="M -179.090625 9.95  L -179.090625 9.95  L -166.690625 9.95  L -166.690625 9.95  z " style="fill:#bac0f2;stroke:#ffffff;stroke-width:0.886227;"/>
    <path clip-path="url(#id1:pb9d1e01101)" d="M -166.690625 176.27  L -166.690625 9.95  L -154.290625 9.95  L -154.290625 176.27  z " style="fill:#edb4b4;stroke:#ffffff;stroke-width:0.886227;"/>
    <path clip-path="url(#id1:pb9d1e01101)" d="M -166.690625 9.95  L -166.690625 9.95  L -154.290625 9.95  L -154.290625 9.95  z " style="fill:#e2e2e2;stroke:#ffffff;stroke-width:0.886227;"/>
    <path clip-path="url(#id1:pb9d1e01101)" d="M -166.690625 9.95  L -166.690625 9.95  L -154.290625 9.95  L -154.290625 9.95  z " style="fill:#bac0f2;stroke:#ffffff;stroke-width:0.886227;"/>
    <path clip-path="url(#id1:pb9d1e01101)" d="M -154.290625 176.27  L -154.290625 9.95  L -141.890625 9.95  L -141.890625 176.27  z " style="fill:#edb4b4;stroke:#ffffff;stroke-width:0.886227;"/>
    <path clip-path="url(#id1:pb9d1e01101)" d="M -154.290625 9.95  L -154.290625 9.95  L -141.890625 9.95  L -141.890625 9.95  z " style="fill:#e2e2e2;stroke:#ffffff;stroke-width:0.886227;"/>
    <path clip-path="url(#id1:pb9d1e01101)" d="M -154.290625 9.95  L -154.290625 9.95  L -141.890625 9.95  L -141.890625 9.95  z " style="fill:#bac0f2;stroke:#ffffff;stroke-width:0.886227;"/>
    <path clip-path="url(#id1:pb9d1e01101)" d="M -141.890625 176.27  L -141.890625 101.639231  L -129.490625 101.639231  L -129.490625 176.27  z " style="fill:#edb4b4;stroke:#ffffff;stroke-width:0.886227;"/>
    <path clip-path="url(#id1:pb9d1e01101)" d="M -141.890625 101.639231  L -141.890625 101.639231  L -129.490625 101.639231  L -129.490625 101.639231  z " style="fill:#e2e2e2;stroke:#ffffff;stroke-width:0.886227;"/>
    <path clip-path="url(#id1:pb9d1e01101)" d="M -141.890625 101.639231  L -141.890625 9.95  L -129.490625 9.95  L -129.490625 101.639231  z " style="fill:#bac0f2;stroke:#ffffff;stroke-width:0.886227;"/>
    <path clip-path="url(#id1:pb9d1e01101)" d="M -129.490625 176.27  L -129.490625 99.958471  L -117.090625 99.958471  L -117.090625 176.27  z " style="fill:#edb4b4;stroke:#ffffff;stroke-width:0.886227;"/>
    <path clip-path="url(#id1:pb9d1e01101)" d="M -129.490625 99.958471  L -129.490625 99.958471  L -117.090625 99.958471  L -117.090625 99.958471  z " style="fill:#e2e2e2;stroke:#ffffff;stroke-width:0.886227;"/>
    <path clip-path="url(#id1:pb9d1e01101)" d="M -129.490625 99.958471  L -129.490625 9.95  L -117.090625 9.95  L -117.090625 99.958471  z " style="fill:#bac0f2;stroke:#ffffff;stroke-width:0.886227;"/>
    <path clip-path="url(#id1:pb9d1e01101)" d="M -117.090625 176.27  L -117.090625 67.522308  L -104.690625 67.522308  L -104.690625 176.27  z " style="fill:#edb4b4;stroke:#ffffff;stroke-width:0.886227;"/>
    <path clip-path="url(#id1:pb9d1e01101)" d="M -117.090625 67.522308  L -117.090625 67.522308  L -104.690625 67.522308  L -104.690625 67.522308  z " style="fill:#e2e2e2;stroke:#ffffff;stroke-width:0.886227;"/>
    <path clip-path="url(#id1:pb9d1e01101)" d="M -117.090625 67.522308  L -117.090625 9.95  L -104.690625 9.95  L -104.690625 67.522308  z " style="fill:#bac0f2;stroke:#ffffff;stroke-width:0.886227;"/>
    <path clip-path="url(#id1:pb9d1e01101)" d="M -104.690625 176.27  L -104.690625 110.081429  L -92.290625 110.081429  L -92.290625 176.27  z " style="fill:#edb4b4;stroke:#ffffff;stroke-width:0.886227;"/>
    <path clip-path="url(#id1:pb9d1e01101)" d="M -104.690625 110.081429  L -104.690625 110.081429  L -92.290625 110.081429  L -92.290625 110.081429  z " style="fill:#e2e2e2;stroke:#ffffff;stroke-width:0.886227;"/>
    <path clip-path="url(#id1:pb9d1e01101)" d="M -104.690625 110.081429  L -104.690625 9.95  L -92.290625 9.95  L -92.290625 110.081429  z " style="fill:#bac0f2;stroke:#ffffff;stroke-width:0.886227;"/>
    <path clip-path="url(#id1:pb9d1e01101)" d="M -92.290625 176.27  L -92.290625 96.027895  L -79.890625 96.027895  L -79.890625 176.27  z " style="fill:#edb4b4;stroke:#ffffff;stroke-width:0.886227;"/>
    <path clip-path="url(#id1:pb9d1e01101)" d="M -92.290625 96.027895  L -92.290625 96.027895  L -79.890625 96.027895  L -79.890625 96.027895  z " style="fill:#e2e2e2;stroke:#ffffff;stroke-width:0.886227;"/>
    <path clip-path="url(#id1:pb9d1e01101)" d="M -92.290625 96.027895  L -92.290625 9.95  L -79.890625 9.95  L -79.890625 96.027895  z " style="fill:#bac0f2;stroke:#ffffff;stroke-width:0.886227;"/>
    <path clip-path="url(#id1:pb9d1e01101)" d="M -79.890625 176.27  L -79.890625 103.956957  L -67.490625 103.956957  L -67.490625 176.27  z " style="fill:#edb4b4;stroke:#ffffff;stroke-width:0.886227;"/>
    <path clip-path="url(#id1:pb9d1e01101)" d="M -79.890625 103.956957  L -79.890625 103.956957  L -67.490625 103.956957  L -67.490625 103.956957  z " style="fill:#e2e2e2;stroke:#ffffff;stroke-width:0.886227;"/>
    <path clip-path="url(#id1:pb9d1e01101)" d="M -79.890625 103.956957  L -79.890625 9.95  L -67.490625 9.95  L -67.490625 103.956957  z " style="fill:#bac0f2;stroke:#ffffff;stroke-width:0.886227;"/>
    <path clip-path="url(#id1:pb9d1e01101)" d="M -67.490625 176.27  L -67.490625 85.699703  L -55.090625 85.699703  L -55.090625 176.27  z " style="fill:#edb4b4;stroke:#ffffff;stroke-width:0.886227;"/>
    <path clip-path="url(#id1:pb9d1e01101)" d="M -67.490625 85.699703  L -67.490625 85.699703  L -55.090625 85.699703  L -55.090625 85.699703  z " style="fill:#e2e2e2;stroke:#ffffff;stroke-width:0.886227;"/>
    <path clip-path="url(#id1:pb9d1e01101)" d="M -67.490625 85.699703  L -67.490625 9.95  L -55.090625 9.95  L -55.090625 85.699703  z " style="fill:#bac0f2;stroke:#ffffff;stroke-width:0.886227;"/>
    <path clip-path="url(#id1:pb9d1e01101)" d="M -55.090625 176.27  L -55.090625 101.426  L -42.690625 101.426  L -42.690625 176.27  z " style="fill:#edb4b4;stroke:#ffffff;stroke-width:0.886227;"/>
    <path clip-path="url(#id1:pb9d1e01101)" d="M -55.090625 101.426  L -55.090625 101.426  L -42.690625 101.426  L -42.690625 101.426  z " style="fill:#e2e2e2;stroke:#ffffff;stroke-width:0.886227;"/>
    <path clip-path="url(#id1:pb9d1e01101)" d="M -55.090625 101.426  L -55.090625 9.95  L -42.690625 9.95  L -42.690625 101.426  z " style="fill:#bac0f2;stroke:#ffffff;stroke-width:0.886227;"/>
    <path clip-path="url(#id1:pb9d1e01101)" d="M -42.690625 176.27  L -42.690625 80.636  L -30.290625 80.636  L -30.290625 176.27  z " style="fill:#edb4b4;stroke:#ffffff;stroke-width:0.886227;"/>
    <path clip-path="url(#id1:pb9d1e01101)" d="M -42.690625 80.636  L -42.690625 80.636  L -30.290625 80.636  L -30.290625 80.636  z " style="fill:#e2e2e2;stroke:#ffffff;stroke-width:0.886227;"/>
    <path clip-path="url(#id1:pb9d1e01101)" d="M -42.690625 80.636  L -42.690625 9.95  L -30.290625 9.95  L -30.290625 80.636  z " style="fill:#bac0f2;stroke:#ffffff;stroke-width:0.886227;"/>
    <path clip-path="url(#id1:pb9d1e01101)" d="M -30.290625 176.27  L -30.290625 109.034255  L -17.890625 109.034255  L -17.890625 176.27  z " style="fill:#edb4b4;stroke:#ffffff;stroke-width:0.886227;"/>
    <path clip-path="url(#id1:pb9d1e01101)" d="M -30.290625 109.034255  L -30.290625 109.034255  L -17.890625 109.034255  L -17.890625 109.034255  z " style="fill:#e2e2e2;stroke:#ffffff;stroke-width:0.886227;"/>
    <path clip-path="url(#id1:pb9d1e01101)" d="M -30.290625 109.034255  L -30.290625 9.95  L -17.890625 9.95  L -17.890625 109.034255  z " style="fill:#bac0f2;stroke:#ffffff;stroke-width:0.886227;"/>
    <path clip-path="url(#id1:pb9d1e01101)" d="M -17.890625 176.27  L -17.890625 130.91  L -5.490625 130.91  L -5.490625 176.27  z " style="fill:#edb4b4;stroke:#ffffff;stroke-width:0.886227;"/>
    <path clip-path="url(#id1:pb9d1e01101)" d="M -17.890625 130.91  L -17.890625 130.91  L -5.490625 130.91  L -5.490625 130.91  z " style="fill:#e2e2e2;stroke:#ffffff;stroke-width:0.886227;"/>
    <path clip-path="url(#id1:pb9d1e01101)" d="M -17.890625 130.91  L -17.890625 9.95  L -5.490625 9.95  L -5.490625 130.91  z " style="fill:#bac0f2;stroke:#ffffff;stroke-width:0.886227;"/>
    <path clip-path="url(#id1:pb9d1e01101)" d="M -5.490625 176.27  L -5.490625 102.705385  L 6.909375 102.705385  L 6.909375 176.27  z " style="fill:#edb4b4;stroke:#ffffff;stroke-width:0.886227;"/>
    <path clip-path="url(#id1:pb9d1e01101)" d="M -5.490625 102.705385  L -5.490625 102.705385  L 6.909375 102.705385  L 6.909375 102.705385  z " style="fill:#e2e2e2;stroke:#ffffff;stroke-width:0.886227;"/>
    <path clip-path="url(#id1:pb9d1e01101)" d="M -5.490625 102.705385  L -5.490625 9.95  L 6.909375 9.95  L 6.909375 102.705385  z " style="fill:#bac0f2;stroke:#ffffff;stroke-width:0.886227;"/>
    <path clip-path="url(#id1:pb9d1e01101)" d="M 6.909375 176.27  L 6.909375 98.597097  L 19.309375 98.597097  L 19.309375 176.27  z " style="fill:#edb4b4;stroke:#ffffff;stroke-width:0.886227;"/>
    <path clip-path="url(#id1:pb9d1e01101)" d="M 6.909375 98.597097  L 6.909375 98.597097  L 19.309375 98.597097  L 19.309375 98.597097  z " style="fill:#e2e2e2;stroke:#ffffff;stroke-width:0.886227;"/>
    <path clip-path="url(#id1:pb9d1e01101)" d="M 6.909375 98.597097  L 6.909375 9.95  L 19.309375 9.95  L 19.309375 98.597097  z " style="fill:#bac0f2;stroke:#ffffff;stroke-width:0.886227;"/>
    <path clip-path="url(#id1:pb9d1e01101)" d="M 19.309375 176.27  L 19.309375 117.833243  L 31.709375 117.833243  L 31.709375 176.27  z " style="fill:#edb4b4;stroke:#ffffff;stroke-width:0.886227;"/>
    <path clip-path="url(#id1:pb9d1e01101)" d="M 19.309375 117.833243  L 19.309375 116.709459  L 31.709375 116.709459  L 31.709375 117.833243  z " style="fill:#e2e2e2;stroke:#ffffff;stroke-width:0.886227;"/>
    <path clip-path="url(#id1:pb9d1e01101)" d="M 19.309375 116.709459  L 19.309375 9.95  L 31.709375 9.95  L 31.709375 116.709459  z " style="fill:#bac0f2;stroke:#ffffff;stroke-width:0.886227;"/>
    <path clip-path="url(#id1:pb9d1e01101)" d="M 31.709375 176.27  L 31.709375 166.021784  L 44.109375 166.021784  L 44.109375 176.27  z " style="fill:#edb4b4;stroke:#ffffff;stroke-width:0.886227;"/>
    <path clip-path="url(#id1:pb9d1e01101)" d="M 31.709375 166.021784  L 31.709375 165.80828  L 44.109375 165.80828  L 44.109375 166.021784  z " style="fill:#e2e2e2;stroke:#ffffff;stroke-width:0.886227;"/>
    <path clip-path="url(#id1:pb9d1e01101)" d="M 31.709375 165.80828  L 31.709375 9.95  L 44.109375 9.95  L 44.109375 165.80828  z " style="fill:#bac0f2;stroke:#ffffff;stroke-width:0.886227;"/>
    <path clip-path="url(#id1:pb9d1e01101)" d="M 44.109375 176.27  L 44.109375 151.500839  L 56.509375 151.500839  L 56.509375 176.27  z " style="fill:#edb4b4;stroke:#ffffff;stroke-width:0.886227;"/>
    <path clip-path="url(#id1:pb9d1e01101)" d="M 44.109375 151.500839  L 44.109375 151.322  L 56.509375 151.322  L 56.509375 151.500839  z " style="fill:#e2e2e2;stroke:#ffffff;stroke-width:0.886227;"/>
    <path clip-path="url(#id1:pb9d1e01101)" d="M 44.109375 151.322  L 44.109375 9.95  L 56.509375 9.95  L 56.509375 151.322  z " style="fill:#bac0f2;stroke:#ffffff;stroke-width:0.886227;"/>
    <path clip-path="url(#id1:pb9d1e01101)" d="M 56.509375 176.27  L 56.509375 145.593664  L 68.909375 145.593664  L 68.909375 176.27  z " style="fill:#edb4b4;stroke:#ffffff;stroke-width:0.886227;"/>
    <path clip-path="url(#id1:pb9d1e01101)" d="M 56.509375 145.593664  L 56.509375 145.384981  L 68.909375 145.384981  L 68.909375 145.593664  z " style="fill:#e2e2e2;stroke:#ffffff;stroke-width:0.886227;"/>
    <path clip-path="url(#id1:pb9d1e01101)" d="M 56.509375 145.384981  L 56.509375 9.95  L 68.909375 9.95  L 68.909375 145.384981  z " style="fill:#bac0f2;stroke:#ffffff;stroke-width:0.886227;"/>
    <path clip-path="url(#id1:pb9d1e01101)" d="M 68.909375 176.27  L 68.909375 147.71721  L 81.309375 147.71721  L 81.309375 176.27  z " style="fill:#edb4b4;stroke:#ffffff;stroke-width:0.886227;"/>
    <path clip-path="url(#id1:pb9d1e01101)" d="M 68.909375 147.71721  L 68.909375 147.637897  L 81.309375 147.637897  L 81.309375 147.71721  z " style="fill:#e2e2e2;stroke:#ffffff;stroke-width:0.886227;"/>
    <path clip-path="url(#id1:pb9d1e01101)" d="M 68.909375 147.637897  L 68.909375 9.95  L 81.309375 9.95  L 81.309375 147.637897  z " style="fill:#bac0f2;stroke:#ffffff;stroke-width:0.886227;"/>
    <path clip-path="url(#id1:pb9d1e01101)" d="M 81.309375 176.27  L 81.309375 148.652288  L 93.709375 148.652288  L 93.709375 176.27  z " style="fill:#edb4b4;stroke:#ffffff;stroke-width:0.886227;"/>
    <path clip-path="url(#id1:pb9d1e01101)" d="M 81.309375 148.652288  L 81.309375 148.627739  L 93.709375 148.627739  L 93.709375 148.652288  z " style="fill:#e2e2e2;stroke:#ffffff;stroke-width:0.886227;"/>
    <path clip-path="url(#id1:pb9d1e01101)" d="M 81.309375 148.627739  L 81.309375 9.95  L 93.709375 9.95  L 93.709375 148.627739  z " style="fill:#bac0f2;stroke:#ffffff;stroke-width:0.886227;"/>
    <path clip-path="url(#id1:pb9d1e01101)" d="M 93.709375 176.27  L 93.709375 157.488424  L 106.109375 157.488424  L 106.109375 176.27  z " style="fill:#edb4b4;stroke:#ffffff;stroke-width:0.886227;"/>
    <path clip-path="url(#id1:pb9d1e01101)" d="M 93.709375 157.488424  L 93.709375 157.47391  L 106.109375 157.47391  L 106.109375 157.488424  z " style="fill:#e2e2e2;stroke:#ffffff;stroke-width:0.886227;"/>
    <path clip-path="url(#id1:pb9d1e01101)" d="M 93.709375 157.47391  L 93.709375 9.95  L 106.109375 9.95  L 106.109375 157.47391  z " style="fill:#bac0f2;stroke:#ffffff;stroke-width:0.886227;"/>
    <path clip-path="url(#id1:pb9d1e01101)" d="M 106.109375 176.27  L 106.109375 157.742927  L 118.509375 157.742927  L 118.509375 176.27  z " style="fill:#edb4b4;stroke:#ffffff;stroke-width:0.886227;"/>
    <path clip-path="url(#id1:pb9d1e01101)" d="M 106.109375 157.742927  L 106.109375 157.164279  L 118.509375 157.164279  L 118.509375 157.742927  z " style="fill:#e2e2e2;stroke:#ffffff;stroke-width:0.886227;"/>
    <path clip-path="url(#id1:pb9d1e01101)" d="M 106.109375 157.164279  L 106.109375 9.95  L 118.509375 9.95  L 118.509375 157.164279  z " style="fill:#bac0f2;stroke:#ffffff;stroke-width:0.886227;"/>
    <path clip-path="url(#id1:pb9d1e01101)" d="M 118.509375 176.27  L 118.509375 154.214825  L 130.909375 154.214825  L 130.909375 176.27  z " style="fill:#edb4b4;stroke:#ffffff;stroke-width:0.886227;"/>
    <path clip-path="url(#id1:pb9d1e01101)" d="M 118.509375 154.214825  L 118.509375 150.16487  L 130.909375 150.16487  L 130.909375 154.214825  z " style="fill:#e2e2e2;stroke:#ffffff;stroke-width:0.886227;"/>
    <path clip-path="url(#id1:pb9d1e01101)" d="M 118.509375 150.16487  L 118.509375 9.95  L 130.909375 9.95  L 130.909375 150.16487  z " style="fill:#bac0f2;stroke:#ffffff;stroke-width:0.886227;"/>
    <path clip-path="url(#id1:pb9d1e01101)" d="M 130.909375 176.27  L 130.909375 155.163445  L 143.309375 155.163445  L 143.309375 176.27  z " style="fill:#edb4b4;stroke:#ffffff;stroke-width:0.886227;"/>
    <path clip-path="url(#id1:pb9d1e01101)" d="M 130.909375 155.163445  L 130.909375 140.63952  L 143.309375 140.63952  L 143.309375 155.163445  z " style="fill:#e2e2e2;stroke:#ffffff;stroke-width:0.886227;"/>
    <path clip-path="url(#id1:pb9d1e01101)" d="M 130.909375 140.63952  L 130.909375 9.95  L 143.309375 9.95  L 143.309375 140.63952  z " style="fill:#bac0f2;stroke:#ffffff;stroke-width:0.886227;"/>
    <path clip-path="url(#id1:pb9d1e01101)" d="M 143.309375 176.27  L 143.309375 159.788671  L 155.709375 159.788671  L 155.709375 176.27  z " style="fill:#edb4b4;stroke:#ffffff;stroke-width:0.886227;"/>
    <path clip-path="url(#id1:pb9d1e01101)" d="M 143.309375 159.788671  L 143.309375 146.678172  L 155.709375 146.678172  L 155.709375 159.788671  z " style="fill:#e2e2e2;stroke:#ffffff;stroke-width:0.886227;"/>
    <path clip-path="url(#id1:pb9d1e01101)" d="M 143.309375 146.678172  L 143.309375 9.95  L 155.709375 9.95  L 155.709375 146.678172  z " style="fill:#bac0f2;stroke:#ffffff;stroke-width:0.886227;"/>
    <path clip-path="url(#id1:pb9d1e01101)" d="M 155.709375 176.27  L 155.709375 158.144375  L 168.109375 158.144375  L 168.109375 176.27  z " style="fill:#edb4b4;stroke:#ffffff;stroke-width:0.886227;"/>
    <path clip-path="url(#id1:pb9d1e01101)" d="M 155.709375 158.144375  L 155.709375 148.544748  L 168.109375 148.544748  L 168.109375 158.144375  z " style="fill:#e2e2e2;stroke:#ffffff;stroke-width:0.886227;"/>
    <path clip-path="url(#id1:pb9d1e01101)" d="M 155.709375 148.544748  L 155.709375 9.95  L 168.109375 9.95  L 168.109375 148.544748  z " style="fill:#bac0f2;stroke:#ffffff;stroke-width:0.886227;"/>
    <path clip-path="url(#id1:pb9d1e01101)" d="M 168.109375 176.27  L 168.109375 158.03216  L 180.509375 158.03216  L 180.509375 176.27  z " style="fill:#edb4b4;stroke:#ffffff;stroke-width:0.886227;"/>
    <path clip-path="url(#id1:pb9d1e01101)" d="M 168.109375 158.03216  L 168.109375 150.568694  L 180.509375 150.568694  L 180.509375 158.03216  z " style="fill:#e2e2e2;stroke:#ffffff;stroke-width:0.886227;"/>
    <path clip-path="url(#id1:pb9d1e01101)" d="M 168.109375 150.568694  L 168.109375 9.95  L 180.509375 9.95  L 180.509375 150.568694  z " style="fill:#bac0f2;stroke:#ffffff;stroke-width:0.886227;"/>
    <path clip-path="url(#id1:pb9d1e01101)" d="M 180.509375 176.27  L 180.509375 157.884693  L 192.909375 157.884693  L 192.909375 176.27  z " style="fill:#edb4b4;stroke:#ffffff;stroke-width:0.886227;"/>
    <path clip-path="url(#id1:pb9d1e01101)" d="M 180.509375 157.884693  L 180.509375 152.840357  L 192.909375 152.840357  L 192.909375 157.884693  z " style="fill:#e2e2e2;stroke:#ffffff;stroke-width:0.886227;"/>
    <path clip-path="url(#id1:pb9d1e01101)" d="M 180.509375 152.840357  L 180.509375 9.95  L 192.909375 9.95  L 192.909375 152.840357  z " style="fill:#bac0f2;stroke:#ffffff;stroke-width:0.886227;"/>
    <path clip-path="url(#id1:pb9d1e01101)" d="M 192.909375 176.27  L 192.909375 156.872569  L 205.309375 156.872569  L 205.309375 176.27  z " style="fill:#edb4b4;stroke:#ffffff;stroke-width:0.886227;"/>
    <path clip-path="url(#id1:pb9d1e01101)" d="M 192.909375 156.872569  L 192.909375 154.742171  L 205.309375 154.742171  L 205.309375 156.872569  z " style="fill:#e2e2e2;stroke:#ffffff;stroke-width:0.886227;"/>
    <path clip-path="url(#id1:pb9d1e01101)" d="M 192.909375 154.742171  L 192.909375 9.95  L 205.309375 9.95  L 205.309375 154.742171  z " style="fill:#bac0f2;stroke:#ffffff;stroke-width:0.886227;"/>
    <path clip-path="url(#id1:pb9d1e01101)" d="M 205.309375 176.27  L 205.309375 155.175435  L 217.709375 155.175435  L 217.709375 176.27  z " style="fill:#edb4b4;stroke:#ffffff;stroke-width:0.886227;"/>
    <path clip-path="url(#id1:pb9d1e01101)" d="M 205.309375 155.175435  L 205.309375 153.913319  L 217.709375 153.913319  L 217.709375 155.175435  z " style="fill:#e2e2e2;stroke:#ffffff;stroke-width:0.886227;"/>
    <path clip-path="url(#id1:pb9d1e01101)" d="M 205.309375 153.913319  L 205.309375 9.95  L 217.709375 9.95  L 217.709375 153.913319  z " style="fill:#bac0f2;stroke:#ffffff;stroke-width:0.886227;"/>
    <path clip-path="url(#id1:pb9d1e01101)" d="M 217.709375 176.27  L 217.709375 154.925905  L 230.109375 154.925905  L 230.109375 176.27  z " style="fill:#edb4b4;stroke:#ffffff;stroke-width:0.886227;"/>
    <path clip-path="url(#id1:pb9d1e01101)" d="M 217.709375 154.925905  L 217.709375 153.748487  L 230.109375 153.748487  L 230.109375 154.925905  z " style="fill:#e2e2e2;stroke:#ffffff;stroke-width:0.886227;"/>
    <path clip-path="url(#id1:pb9d1e01101)" d="M 217.709375 153.748487  L 217.709375 9.95  L 230.109375 9.95  L 230.109375 153.748487  z " style="fill:#bac0f2;stroke:#ffffff;stroke-width:0.886227;"/>
    <path clip-path="url(#id1:pb9d1e01101)" d="M 230.109375 176.27  L 230.109375 154.123023  L 242.509375 154.123023  L 242.509375 176.27  z " style="fill:#edb4b4;stroke:#ffffff;stroke-width:0.886227;"/>
    <path clip-path="url(#id1:pb9d1e01101)" d="M 230.109375 154.123023  L 230.109375 153.560271  L 242.509375 153.560271  L 242.509375 154.123023  z " style="fill:#e2e2e2;stroke:#ffffff;stroke-width:0.886227;"/>
    <path clip-path="url(#id1:pb9d1e01101)" d="M 230.109375 153.560271  L 230.109375 9.95  L 242.509375 9.95  L 242.509375 153.560271  z " style="fill:#bac0f2;stroke:#ffffff;stroke-width:0.886227;"/>
    <path clip-path="url(#id1:pb9d1e01101)" d="M 242.509375 176.27  L 242.509375 156.320263  L 254.909375 156.320263  L 254.909375 176.27  z " style="fill:#edb4b4;stroke:#ffffff;stroke-width:0.886227;"/>
    <path clip-path="url(#id1:pb9d1e01101)" d="M 242.509375 156.320263  L 242.509375 155.792172  L 254.909375 155.792172  L 254.909375 156.320263  z " style="fill:#e2e2e2;stroke:#ffffff;stroke-width:0.886227;"/>
    <path clip-path="url(#id1:pb9d1e01101)" d="M 242.509375 155.792172  L 242.509375 9.95  L 254.909375 9.95  L 254.909375 155.792172  z " style="fill:#bac0f2;stroke:#ffffff;stroke-width:0.886227;"/>
    <path clip-path="url(#id1:pb9d1e01101)" d="M 254.909375 176.27  L 254.909375 159.913797  L 267.309375 159.913797  L 267.309375 176.27  z " style="fill:#edb4b4;stroke:#ffffff;stroke-width:0.886227;"/>
    <path clip-path="url(#id1:pb9d1e01101)" d="M 254.909375 159.913797  L 254.909375 159.400527  L 267.309375 159.400527  L 267.309375 159.913797  z " style="fill:#e2e2e2;stroke:#ffffff;stroke-width:0.886227;"/>
    <path clip-path="url(#id1:pb9d1e01101)" d="M 254.909375 159.400527  L 254.909375 9.95  L 267.309375 9.95  L 267.309375 159.400527  z " style="fill:#bac0f2;stroke:#ffffff;stroke-width:0.886227;"/>
   </g>
  </g>
 </g>
 </g>
</svg>
